%!PS-Adobe-3.0 EPSF-3.0
%%Creator: (MATLAB, The Mathworks, Inc. Version 9.8.0.1323502 \(R2020a\). Operating System: Linux)
%%Title: ./lab1f1.eps
%%CreationDate: 2020-06-17T16:18:27
%%Pages: (atend)
%%BoundingBox:    18     6   346   217
%%LanguageLevel: 3
%%EndComments
%%BeginProlog
%%BeginResource: procset (Apache XML Graphics Std ProcSet) 1.2 0
%%Version: 1.2 0
%%Copyright: (Copyright 2001-2003,2010 The Apache Software Foundation. License terms: http://www.apache.org/licenses/LICENSE-2.0)
/bd{bind def}bind def
/ld{load def}bd
/GR/grestore ld
/GS/gsave ld
/RM/rmoveto ld
/C/curveto ld
/t/show ld
/L/lineto ld
/ML/setmiterlimit ld
/CT/concat ld
/f/fill ld
/N/newpath ld
/S/stroke ld
/CC/setcmykcolor ld
/A/ashow ld
/cp/closepath ld
/RC/setrgbcolor ld
/LJ/setlinejoin ld
/GC/setgray ld
/LW/setlinewidth ld
/M/moveto ld
/re {4 2 roll M
1 index 0 rlineto
0 exch rlineto
neg 0 rlineto
cp } bd
/_ctm matrix def
/_tm matrix def
/BT { _ctm currentmatrix pop matrix _tm copy pop 0 0 moveto } bd
/ET { _ctm setmatrix } bd
/iTm { _ctm setmatrix _tm concat } bd
/Tm { _tm astore pop iTm 0 0 moveto } bd
/ux 0.0 def
/uy 0.0 def
/F {
  /Tp exch def
  /Tf exch def
  Tf findfont Tp scalefont setfont
  /cf Tf def  /cs Tp def
} bd
/ULS {currentpoint /uy exch def /ux exch def} bd
/ULE {
  /Tcx currentpoint pop def
  gsave
  newpath
  cf findfont cs scalefont dup
  /FontMatrix get 0 get /Ts exch def /FontInfo get dup
  /UnderlinePosition get Ts mul /To exch def
  /UnderlineThickness get Ts mul /Tt exch def
  ux uy To add moveto  Tcx uy To add lineto
  Tt setlinewidth stroke
  grestore
} bd
/OLE {
  /Tcx currentpoint pop def
  gsave
  newpath
  cf findfont cs scalefont dup
  /FontMatrix get 0 get /Ts exch def /FontInfo get dup
  /UnderlinePosition get Ts mul /To exch def
  /UnderlineThickness get Ts mul /Tt exch def
  ux uy To add cs add moveto Tcx uy To add cs add lineto
  Tt setlinewidth stroke
  grestore
} bd
/SOE {
  /Tcx currentpoint pop def
  gsave
  newpath
  cf findfont cs scalefont dup
  /FontMatrix get 0 get /Ts exch def /FontInfo get dup
  /UnderlinePosition get Ts mul /To exch def
  /UnderlineThickness get Ts mul /Tt exch def
  ux uy To add cs 10 mul 26 idiv add moveto Tcx uy To add cs 10 mul 26 idiv add lineto
  Tt setlinewidth stroke
  grestore
} bd
/QT {
/Y22 exch store
/X22 exch store
/Y21 exch store
/X21 exch store
currentpoint
/Y21 load 2 mul add 3 div exch
/X21 load 2 mul add 3 div exch
/X21 load 2 mul /X22 load add 3 div
/Y21 load 2 mul /Y22 load add 3 div
/X22 load /Y22 load curveto
} bd
/SSPD {
dup length /d exch dict def
{
/v exch def
/k exch def
currentpagedevice k known {
/cpdv currentpagedevice k get def
v cpdv ne {
/upd false def
/nullv v type /nulltype eq def
/nullcpdv cpdv type /nulltype eq def
nullv nullcpdv or
{
/upd true def
} {
/sametype v type cpdv type eq def
sametype {
v type /arraytype eq {
/vlen v length def
/cpdvlen cpdv length def
vlen cpdvlen eq {
0 1 vlen 1 sub {
/i exch def
/obj v i get def
/cpdobj cpdv i get def
obj cpdobj ne {
/upd true def
exit
} if
} for
} {
/upd true def
} ifelse
} {
v type /dicttype eq {
v {
/dv exch def
/dk exch def
/cpddv cpdv dk get def
dv cpddv ne {
/upd true def
exit
} if
} forall
} {
/upd true def
} ifelse
} ifelse
} if
} ifelse
upd true eq {
d k v put
} if
} if
} if
} forall
d length 0 gt {
d setpagedevice
} if
} bd
/RE { % /NewFontName [NewEncodingArray] /FontName RE -
  findfont dup length dict begin
  {
    1 index /FID ne
    {def} {pop pop} ifelse
  } forall
  /Encoding exch def
  /FontName 1 index def
  currentdict definefont pop
  end
} bind def
%%EndResource
%%BeginResource: procset (Apache XML Graphics EPS ProcSet) 1.0 0
%%Version: 1.0 0
%%Copyright: (Copyright 2002-2003 The Apache Software Foundation. License terms: http://www.apache.org/licenses/LICENSE-2.0)
/BeginEPSF { %def
/b4_Inc_state save def         % Save state for cleanup
/dict_count countdictstack def % Count objects on dict stack
/op_count count 1 sub def      % Count objects on operand stack
userdict begin                 % Push userdict on dict stack
/showpage { } def              % Redefine showpage, { } = null proc
0 setgray 0 setlinecap         % Prepare graphics state
1 setlinewidth 0 setlinejoin
10 setmiterlimit [ ] 0 setdash newpath
/languagelevel where           % If level not equal to 1 then
{pop languagelevel             % set strokeadjust and
1 ne                           % overprint to their defaults.
{false setstrokeadjust false setoverprint
} if
} if
} bd
/EndEPSF { %def
count op_count sub {pop} repeat            % Clean up stacks
countdictstack dict_count sub {end} repeat
b4_Inc_state restore
} bd
%%EndResource
%FOPBeginFontDict
%%IncludeResource: font Courier-Oblique
%%IncludeResource: font Courier-BoldOblique
%%IncludeResource: font Courier-Bold
%%IncludeResource: font ZapfDingbats
%%IncludeResource: font Symbol
%%IncludeResource: font Helvetica
%%IncludeResource: font Helvetica-Oblique
%%IncludeResource: font Helvetica-Bold
%%IncludeResource: font Helvetica-BoldOblique
%%IncludeResource: font Times-Roman
%%IncludeResource: font Times-Italic
%%IncludeResource: font Times-Bold
%%IncludeResource: font Times-BoldItalic
%%IncludeResource: font Courier
%FOPEndFontDict
%%BeginResource: encoding WinAnsiEncoding
/WinAnsiEncoding [
/.notdef /.notdef /.notdef /.notdef /.notdef
/.notdef /.notdef /.notdef /.notdef /.notdef
/.notdef /.notdef /.notdef /.notdef /.notdef
/.notdef /.notdef /.notdef /.notdef /.notdef
/.notdef /.notdef /.notdef /.notdef /.notdef
/.notdef /.notdef /.notdef /.notdef /.notdef
/.notdef /.notdef /space /exclam /quotedbl
/numbersign /dollar /percent /ampersand /quotesingle
/parenleft /parenright /asterisk /plus /comma
/hyphen /period /slash /zero /one
/two /three /four /five /six
/seven /eight /nine /colon /semicolon
/less /equal /greater /question /at
/A /B /C /D /E
/F /G /H /I /J
/K /L /M /N /O
/P /Q /R /S /T
/U /V /W /X /Y
/Z /bracketleft /backslash /bracketright /asciicircum
/underscore /quoteleft /a /b /c
/d /e /f /g /h
/i /j /k /l /m
/n /o /p /q /r
/s /t /u /v /w
/x /y /z /braceleft /bar
/braceright /asciitilde /bullet /Euro /bullet
/quotesinglbase /florin /quotedblbase /ellipsis /dagger
/daggerdbl /circumflex /perthousand /Scaron /guilsinglleft
/OE /bullet /Zcaron /bullet /bullet
/quoteleft /quoteright /quotedblleft /quotedblright /bullet
/endash /emdash /asciitilde /trademark /scaron
/guilsinglright /oe /bullet /zcaron /Ydieresis
/space /exclamdown /cent /sterling /currency
/yen /brokenbar /section /dieresis /copyright
/ordfeminine /guillemotleft /logicalnot /sfthyphen /registered
/macron /degree /plusminus /twosuperior /threesuperior
/acute /mu /paragraph /middot /cedilla
/onesuperior /ordmasculine /guillemotright /onequarter /onehalf
/threequarters /questiondown /Agrave /Aacute /Acircumflex
/Atilde /Adieresis /Aring /AE /Ccedilla
/Egrave /Eacute /Ecircumflex /Edieresis /Igrave
/Iacute /Icircumflex /Idieresis /Eth /Ntilde
/Ograve /Oacute /Ocircumflex /Otilde /Odieresis
/multiply /Oslash /Ugrave /Uacute /Ucircumflex
/Udieresis /Yacute /Thorn /germandbls /agrave
/aacute /acircumflex /atilde /adieresis /aring
/ae /ccedilla /egrave /eacute /ecircumflex
/edieresis /igrave /iacute /icircumflex /idieresis
/eth /ntilde /ograve /oacute /ocircumflex
/otilde /odieresis /divide /oslash /ugrave
/uacute /ucircumflex /udieresis /yacute /thorn
/ydieresis
] def
%%EndResource
%FOPBeginFontReencode
/Courier-Oblique findfont
dup length dict begin
  {1 index /FID ne {def} {pop pop} ifelse} forall
  /Encoding WinAnsiEncoding def
  currentdict
end
/Courier-Oblique exch definefont pop
/Courier-BoldOblique findfont
dup length dict begin
  {1 index /FID ne {def} {pop pop} ifelse} forall
  /Encoding WinAnsiEncoding def
  currentdict
end
/Courier-BoldOblique exch definefont pop
/Courier-Bold findfont
dup length dict begin
  {1 index /FID ne {def} {pop pop} ifelse} forall
  /Encoding WinAnsiEncoding def
  currentdict
end
/Courier-Bold exch definefont pop
/Helvetica findfont
dup length dict begin
  {1 index /FID ne {def} {pop pop} ifelse} forall
  /Encoding WinAnsiEncoding def
  currentdict
end
/Helvetica exch definefont pop
/Helvetica-Oblique findfont
dup length dict begin
  {1 index /FID ne {def} {pop pop} ifelse} forall
  /Encoding WinAnsiEncoding def
  currentdict
end
/Helvetica-Oblique exch definefont pop
/Helvetica-Bold findfont
dup length dict begin
  {1 index /FID ne {def} {pop pop} ifelse} forall
  /Encoding WinAnsiEncoding def
  currentdict
end
/Helvetica-Bold exch definefont pop
/Helvetica-BoldOblique findfont
dup length dict begin
  {1 index /FID ne {def} {pop pop} ifelse} forall
  /Encoding WinAnsiEncoding def
  currentdict
end
/Helvetica-BoldOblique exch definefont pop
/Times-Roman findfont
dup length dict begin
  {1 index /FID ne {def} {pop pop} ifelse} forall
  /Encoding WinAnsiEncoding def
  currentdict
end
/Times-Roman exch definefont pop
/Times-Italic findfont
dup length dict begin
  {1 index /FID ne {def} {pop pop} ifelse} forall
  /Encoding WinAnsiEncoding def
  currentdict
end
/Times-Italic exch definefont pop
/Times-Bold findfont
dup length dict begin
  {1 index /FID ne {def} {pop pop} ifelse} forall
  /Encoding WinAnsiEncoding def
  currentdict
end
/Times-Bold exch definefont pop
/Times-BoldItalic findfont
dup length dict begin
  {1 index /FID ne {def} {pop pop} ifelse} forall
  /Encoding WinAnsiEncoding def
  currentdict
end
/Times-BoldItalic exch definefont pop
/Courier findfont
dup length dict begin
  {1 index /FID ne {def} {pop pop} ifelse} forall
  /Encoding WinAnsiEncoding def
  currentdict
end
/Courier exch definefont pop
%FOPEndFontReencode
%%EndProlog
%%Page: 1 1
%%PageBoundingBox: 0 0 375 225
%%BeginPageSetup
[1 0 0 -1 0 225] CT
%%EndPageSetup
GS
[0.75 0 0 0.75 0 0] CT
1 GC
N
0 0 500 300 re
f
GR
GS
[0.75 0 0 0.75 0 0] CT
1 GC
N
0 0 500 300 re
f
GR
GS
[0.75 0 0 0.75 0 0] CT
1 GC
N
65 118 M
453 118 L
453 26 L
65 26 L
cp
f
GR
GS
[0.75 0 0 0.75 0 0] CT
0.851 GC
1 LJ
0.667 LW
N
65 118 M
65 26 L
S
GR
GS
[0.75 0 0 0.75 0 0] CT
0.851 GC
1 LJ
0.667 LW
N
142.6 118 M
142.6 26 L
S
GR
GS
[0.75 0 0 0.75 0 0] CT
0.851 GC
1 LJ
0.667 LW
N
220.2 118 M
220.2 26 L
S
GR
GS
[0.75 0 0 0.75 0 0] CT
0.851 GC
1 LJ
0.667 LW
N
297.8 118 M
297.8 26 L
S
GR
GS
[0.75 0 0 0.75 0 0] CT
0.851 GC
1 LJ
0.667 LW
N
375.4 118 M
375.4 26 L
S
GR
GS
[0.75 0 0 0.75 0 0] CT
0.851 GC
1 LJ
0.667 LW
N
453 118 M
453 26 L
S
GR
GS
[0.75 0 0 0.75 0 0] CT
0.851 GC
1 LJ
0.667 LW
N
453 106.548 M
65 106.548 L
S
GR
GS
[0.75 0 0 0.75 0 0] CT
0.851 GC
1 LJ
0.667 LW
N
453 72 M
65 72 L
S
GR
GS
[0.75 0 0 0.75 0 0] CT
0.851 GC
1 LJ
0.667 LW
N
453 37.452 M
65 37.452 L
S
GR
GS
[0.75 0 0 0.75 0 0] CT
2 setlinecap
1 LJ
0.667 LW
N
65 118 M
453 118 L
S
GR
GS
[0.75 0 0 0.75 0 0] CT
2 setlinecap
1 LJ
0.667 LW
N
65 26 M
453 26 L
S
GR
GS
[0.75 0 0 0.75 0 0] CT
2 setlinecap
1 LJ
0.667 LW
N
65 118 M
65 114.12 L
S
GR
GS
[0.75 0 0 0.75 0 0] CT
2 setlinecap
1 LJ
0.667 LW
N
142.6 118 M
142.6 114.12 L
S
GR
GS
[0.75 0 0 0.75 0 0] CT
2 setlinecap
1 LJ
0.667 LW
N
220.2 118 M
220.2 114.12 L
S
GR
GS
[0.75 0 0 0.75 0 0] CT
2 setlinecap
1 LJ
0.667 LW
N
297.8 118 M
297.8 114.12 L
S
GR
GS
[0.75 0 0 0.75 0 0] CT
2 setlinecap
1 LJ
0.667 LW
N
375.4 118 M
375.4 114.12 L
S
GR
GS
[0.75 0 0 0.75 0 0] CT
2 setlinecap
1 LJ
0.667 LW
N
453 118 M
453 114.12 L
S
GR
GS
[0.75 0 0 0.75 0 0] CT
2 setlinecap
1 LJ
0.667 LW
N
65 26 M
65 29.88 L
S
GR
GS
[0.75 0 0 0.75 0 0] CT
2 setlinecap
1 LJ
0.667 LW
N
142.6 26 M
142.6 29.88 L
S
GR
GS
[0.75 0 0 0.75 0 0] CT
2 setlinecap
1 LJ
0.667 LW
N
220.2 26 M
220.2 29.88 L
S
GR
GS
[0.75 0 0 0.75 0 0] CT
2 setlinecap
1 LJ
0.667 LW
N
297.8 26 M
297.8 29.88 L
S
GR
GS
[0.75 0 0 0.75 0 0] CT
2 setlinecap
1 LJ
0.667 LW
N
375.4 26 M
375.4 29.88 L
S
GR
GS
[0.75 0 0 0.75 0 0] CT
2 setlinecap
1 LJ
0.667 LW
N
453 26 M
453 29.88 L
S
GR
GS
[0.75 0 0 0.75 48.75 90.7] CT
/Helvetica 11.333 F
GS
[1 0 0 1 0 0] CT
-4 11 moveto 
1 -1 scale
(0) t 
GR
GR
GS
[0.75 0 0 0.75 106.94999 90.7] CT
/Helvetica 11.333 F
GS
[1 0 0 1 0 0] CT
-13 11 moveto 
1 -1 scale
(0.02) t 
GR
GR
GS
[0.75 0 0 0.75 165.15 90.7] CT
/Helvetica 11.333 F
GS
[1 0 0 1 0 0] CT
-13 11 moveto 
1 -1 scale
(0.04) t 
GR
GR
GS
[0.75 0 0 0.75 223.34999 90.7] CT
/Helvetica 11.333 F
GS
[1 0 0 1 0 0] CT
-13 11 moveto 
1 -1 scale
(0.06) t 
GR
GR
GS
[0.75 0 0 0.75 281.55 90.7] CT
/Helvetica 11.333 F
GS
[1 0 0 1 0 0] CT
-13 11 moveto 
1 -1 scale
(0.08) t 
GR
GR
GS
[0.75 0 0 0.75 339.75 90.7] CT
/Helvetica 11.333 F
GS
[1 0 0 1 0 0] CT
-9 11 moveto 
1 -1 scale
(0.1) t 
GR
GR
GS
[0.75 0 0 0.75 194.25014 101.45] CT
/Helvetica 12.467 F
GS
[1 0 0 1 0 0] CT
-13 12 moveto 
1 -1 scale
(t [s]) t 
GR
GR
GS
[0.75 0 0 0.75 0 0] CT
2 setlinecap
1 LJ
0.667 LW
N
65 118 M
65 26 L
S
GR
GS
[0.75 0 0 0.75 0 0] CT
2 setlinecap
1 LJ
0.667 LW
N
453 118 M
453 26 L
S
GR
GS
[0.75 0 0 0.75 0 0] CT
2 setlinecap
1 LJ
0.667 LW
N
65 106.548 M
68.88 106.548 L
S
GR
GS
[0.75 0 0 0.75 0 0] CT
2 setlinecap
1 LJ
0.667 LW
N
65 72 M
68.88 72 L
S
GR
GS
[0.75 0 0 0.75 0 0] CT
2 setlinecap
1 LJ
0.667 LW
N
65 37.452 M
68.88 37.452 L
S
GR
GS
[0.75 0 0 0.75 0 0] CT
2 setlinecap
1 LJ
0.667 LW
N
453 106.548 M
449.12 106.548 L
S
GR
GS
[0.75 0 0 0.75 0 0] CT
2 setlinecap
1 LJ
0.667 LW
N
453 72 M
449.12 72 L
S
GR
GS
[0.75 0 0 0.75 0 0] CT
2 setlinecap
1 LJ
0.667 LW
N
453 37.452 M
449.12 37.452 L
S
GR
GS
[0.75 0 0 0.75 46.55 79.91103] CT
/Helvetica 11.333 F
GS
[1 0 0 1 0 0] CT
-23 4 moveto 
1 -1 scale
(-0.5) t 
GR
GR
GS
[0.75 0 0 0.75 46.55 54] CT
/Helvetica 11.333 F
GS
[1 0 0 1 0 0] CT
-8 4 moveto 
1 -1 scale
(0) t 
GR
GR
GS
[0.75 0 0 0.75 46.55 28.08897] CT
/Helvetica 11.333 F
GS
[1 0 0 1 0 0] CT
-18 4 moveto 
1 -1 scale
(0.5) t 
GR
GR
GS
[0 -0.75 0.75 0 27.8 53.99997] CT
/Helvetica 12.467 F
GS
[1 0 0 1 0 0] CT
-20.5 -3 moveto 
1 -1 scale
(y\(t\) [-]) t 
GR
GR
GS
[0.75 0 0 0.75 194.25018 17.74688] CT
N
-71.813 -11.469 M
-71.813 -9.625 L
-72.531 -9.938 -73.219 -10.102 QT
-73.906 -10.266 -74.516 -10.266 QT
-75.313 -10.266 -75.703 -10.047 QT
-76.094 -9.828 -76.094 -9.359 QT
-76.094 -9 -75.836 -8.805 QT
-75.578 -8.609 -74.891 -8.469 QT
-73.922 -8.281 L
-72.469 -7.984 -71.852 -7.391 QT
-71.234 -6.797 -71.234 -5.688 QT
-71.234 -4.25 -72.094 -3.539 QT
-72.953 -2.828 -74.719 -2.828 QT
-75.547 -2.828 -76.383 -2.984 QT
-77.219 -3.141 -78.063 -3.453 QT
-78.063 -5.359 L
-77.219 -4.922 -76.438 -4.695 QT
-75.656 -4.469 -74.938 -4.469 QT
-74.188 -4.469 -73.797 -4.711 QT
-73.406 -4.953 -73.406 -5.422 QT
-73.406 -5.828 -73.672 -6.047 QT
-73.938 -6.266 -74.734 -6.453 QT
-75.609 -6.641 L
-76.922 -6.922 -77.531 -7.539 QT
-78.141 -8.156 -78.141 -9.188 QT
-78.141 -10.5 -77.297 -11.203 QT
-76.453 -11.906 -74.875 -11.906 QT
-74.141 -11.906 -73.383 -11.797 QT
-72.625 -11.688 -71.813 -11.469 QT
cp
-69.902 -9.563 M
-67.792 -9.563 L
-66.027 -5.109 L
-64.527 -9.563 L
-62.433 -9.563 L
-65.199 -2.375 L
-65.605 -1.281 -66.16 -0.844 QT
-66.714 -0.406 -67.62 -0.406 QT
-68.839 -0.406 L
-68.839 -1.781 L
-68.183 -1.781 L
-67.652 -1.781 -67.41 -1.953 QT
-67.167 -2.125 -67.027 -2.563 QT
-66.964 -2.75 L
-69.902 -9.563 L
cp
-56.466 -4.109 M
-56.888 -3.547 -57.411 -3.273 QT
-57.935 -3 -58.622 -3 QT
-59.826 -3 -60.607 -3.945 QT
-61.388 -4.891 -61.388 -6.359 QT
-61.388 -7.828 -60.607 -8.766 QT
-59.826 -9.703 -58.622 -9.703 QT
-57.935 -9.703 -57.411 -9.438 QT
-56.888 -9.172 -56.466 -8.594 QT
-56.466 -9.563 L
-54.357 -9.563 L
-54.357 -3.656 L
-54.357 -2.078 -55.357 -1.242 QT
-56.357 -0.406 -58.247 -0.406 QT
-58.857 -0.406 -59.435 -0.5 QT
-60.013 -0.594 -60.591 -0.797 QT
-60.591 -2.422 L
-60.044 -2.109 -59.513 -1.953 QT
-58.982 -1.797 -58.451 -1.797 QT
-57.419 -1.797 -56.943 -2.25 QT
-56.466 -2.703 -56.466 -3.656 QT
-56.466 -4.109 L
cp
-57.841 -8.203 M
-58.497 -8.203 -58.857 -7.719 QT
-59.216 -7.234 -59.216 -6.359 QT
-59.216 -5.453 -58.865 -4.992 QT
-58.513 -4.531 -57.841 -4.531 QT
-57.185 -4.531 -56.826 -5.008 QT
-56.466 -5.484 -56.466 -6.359 QT
-56.466 -7.234 -56.826 -7.719 QT
-57.185 -8.203 -57.841 -8.203 QT
cp
-45.422 -7 M
-45.422 -3 L
-47.532 -3 L
-47.532 -3.656 L
-47.532 -6.063 L
-47.532 -6.906 -47.571 -7.227 QT
-47.61 -7.547 -47.704 -7.703 QT
-47.829 -7.906 -48.04 -8.023 QT
-48.251 -8.141 -48.516 -8.141 QT
-49.172 -8.141 -49.547 -7.633 QT
-49.922 -7.125 -49.922 -6.234 QT
-49.922 -3 L
-52.016 -3 L
-52.016 -9.563 L
-49.922 -9.563 L
-49.922 -8.609 L
-49.454 -9.172 -48.922 -9.445 QT
-48.391 -9.719 -47.735 -9.719 QT
-46.61 -9.719 -46.016 -9.023 QT
-45.422 -8.328 -45.422 -7 QT
cp
-40.224 -5.953 M
-40.881 -5.953 -41.216 -5.734 QT
-41.552 -5.516 -41.552 -5.078 QT
-41.552 -4.672 -41.279 -4.445 QT
-41.006 -4.219 -40.537 -4.219 QT
-39.943 -4.219 -39.537 -4.648 QT
-39.131 -5.078 -39.131 -5.719 QT
-39.131 -5.953 L
-40.224 -5.953 L
cp
-37.021 -6.75 M
-37.021 -3 L
-39.131 -3 L
-39.131 -3.969 L
-39.552 -3.375 -40.084 -3.102 QT
-40.615 -2.828 -41.365 -2.828 QT
-42.396 -2.828 -43.029 -3.422 QT
-43.662 -4.016 -43.662 -4.969 QT
-43.662 -6.125 -42.865 -6.664 QT
-42.068 -7.203 -40.381 -7.203 QT
-39.131 -7.203 L
-39.131 -7.359 L
-39.131 -7.859 -39.529 -8.094 QT
-39.927 -8.328 -40.756 -8.328 QT
-41.427 -8.328 -42.006 -8.195 QT
-42.584 -8.063 -43.084 -7.781 QT
-43.084 -9.391 L
-42.412 -9.547 -41.732 -9.633 QT
-41.052 -9.719 -40.381 -9.719 QT
-38.599 -9.719 -37.81 -9.023 QT
-37.021 -8.328 -37.021 -6.75 QT
cp
-34.613 -12.125 M
-32.503 -12.125 L
-32.503 -9.188 L
-31.753 -9.703 L
-31.097 -8.797 L
-32.503 -7.828 L
-32.503 -3 L
-34.613 -3 L
-34.613 -6.75 L
-35.347 -6.25 L
-36.003 -7.156 L
-34.613 -8.109 L
-34.613 -12.125 L
cp
-26.417 -9.563 M
-24.37 -9.563 L
-23.277 -5.047 L
-22.167 -9.563 L
-20.417 -9.563 L
-19.308 -5.094 L
-18.214 -9.563 L
-16.167 -9.563 L
-17.902 -3 L
-20.183 -3 L
-21.292 -7.516 L
-22.402 -3 L
-24.683 -3 L
-26.417 -9.563 L
cp
-15.208 -9.563 M
-13.099 -9.563 L
-11.333 -5.109 L
-9.833 -9.563 L
-7.74 -9.563 L
-10.505 -2.375 L
-10.911 -1.281 -11.466 -0.844 QT
-12.021 -0.406 -12.927 -0.406 QT
-14.146 -0.406 L
-14.146 -1.781 L
-13.49 -1.781 L
-12.958 -1.781 -12.716 -1.953 QT
-12.474 -2.125 -12.333 -2.563 QT
-12.271 -2.75 L
-15.208 -9.563 L
cp
-1.773 -4.109 M
-2.195 -3.547 -2.718 -3.273 QT
-3.241 -3 -3.929 -3 QT
-5.132 -3 -5.913 -3.945 QT
-6.695 -4.891 -6.695 -6.359 QT
-6.695 -7.828 -5.913 -8.766 QT
-5.132 -9.703 -3.929 -9.703 QT
-3.241 -9.703 -2.718 -9.438 QT
-2.195 -9.172 -1.773 -8.594 QT
-1.773 -9.563 L
0.337 -9.563 L
0.337 -3.656 L
0.337 -2.078 -0.663 -1.242 QT
-1.663 -0.406 -3.554 -0.406 QT
-4.163 -0.406 -4.741 -0.5 QT
-5.32 -0.594 -5.898 -0.797 QT
-5.898 -2.422 L
-5.351 -2.109 -4.82 -1.953 QT
-4.288 -1.797 -3.757 -1.797 QT
-2.726 -1.797 -2.249 -2.25 QT
-1.773 -2.703 -1.773 -3.656 QT
-1.773 -4.109 L
cp
-3.148 -8.203 M
-3.804 -8.203 -4.163 -7.719 QT
-4.523 -7.234 -4.523 -6.359 QT
-4.523 -5.453 -4.171 -4.992 QT
-3.82 -4.531 -3.148 -4.531 QT
-2.491 -4.531 -2.132 -5.008 QT
-1.773 -5.484 -1.773 -6.359 QT
-1.773 -7.234 -2.132 -7.719 QT
-2.491 -8.203 -3.148 -8.203 QT
cp
9.224 -6.297 M
9.224 -5.703 L
4.318 -5.703 L
4.396 -4.969 4.849 -4.594 QT
5.302 -4.219 6.13 -4.219 QT
6.787 -4.219 7.482 -4.422 QT
8.177 -4.625 8.912 -5.016 QT
8.912 -3.406 L
8.162 -3.125 7.419 -2.977 QT
6.677 -2.828 5.927 -2.828 QT
4.146 -2.828 3.162 -3.734 QT
2.177 -4.641 2.177 -6.281 QT
2.177 -7.875 3.146 -8.797 QT
4.115 -9.719 5.818 -9.719 QT
7.365 -9.719 8.294 -8.789 QT
9.224 -7.859 9.224 -6.297 QT
cp
7.068 -7 M
7.068 -7.594 6.716 -7.961 QT
6.365 -8.328 5.802 -8.328 QT
5.193 -8.328 4.81 -7.984 QT
4.427 -7.641 4.333 -7 QT
7.068 -7 L
cp
17.706 -7 M
17.706 -3 L
15.597 -3 L
15.597 -3.656 L
15.597 -6.063 L
15.597 -6.906 15.558 -7.227 QT
15.519 -7.547 15.425 -7.703 QT
15.3 -7.906 15.089 -8.023 QT
14.878 -8.141 14.613 -8.141 QT
13.956 -8.141 13.581 -7.633 QT
13.206 -7.125 13.206 -6.234 QT
13.206 -3 L
11.113 -3 L
11.113 -9.563 L
13.206 -9.563 L
13.206 -8.609 L
13.675 -9.172 14.206 -9.445 QT
14.738 -9.719 15.394 -9.719 QT
16.519 -9.719 17.113 -9.023 QT
17.706 -8.328 17.706 -7 QT
cp
26.514 -6.297 M
26.514 -5.703 L
21.608 -5.703 L
21.686 -4.969 22.139 -4.594 QT
22.592 -4.219 23.42 -4.219 QT
24.076 -4.219 24.772 -4.422 QT
25.467 -4.625 26.201 -5.016 QT
26.201 -3.406 L
25.451 -3.125 24.709 -2.977 QT
23.967 -2.828 23.217 -2.828 QT
21.436 -2.828 20.451 -3.734 QT
19.467 -4.641 19.467 -6.281 QT
19.467 -7.875 20.436 -8.797 QT
21.405 -9.719 23.108 -9.719 QT
24.655 -9.719 25.584 -8.789 QT
26.514 -7.859 26.514 -6.297 QT
cp
24.358 -7 M
24.358 -7.594 24.006 -7.961 QT
23.655 -8.328 23.092 -8.328 QT
22.483 -8.328 22.1 -7.984 QT
21.717 -7.641 21.623 -7 QT
24.358 -7 L
cp
33.277 -7.781 M
32.996 -7.906 32.723 -7.969 QT
32.449 -8.031 32.168 -8.031 QT
31.371 -8.031 30.934 -7.508 QT
30.496 -6.984 30.496 -6.031 QT
30.496 -3 L
28.402 -3 L
28.402 -9.563 L
30.496 -9.563 L
30.496 -8.484 L
30.902 -9.125 31.426 -9.422 QT
31.949 -9.719 32.684 -9.719 QT
32.777 -9.719 32.902 -9.711 QT
33.027 -9.703 33.262 -9.672 QT
33.277 -7.781 L
cp
37.646 -8.219 M
36.958 -8.219 36.591 -7.719 QT
36.224 -7.219 36.224 -6.281 QT
36.224 -5.328 36.591 -4.828 QT
36.958 -4.328 37.646 -4.328 QT
38.333 -4.328 38.7 -4.828 QT
39.067 -5.328 39.067 -6.281 QT
39.067 -7.219 38.7 -7.719 QT
38.333 -8.219 37.646 -8.219 QT
cp
37.646 -9.719 M
39.349 -9.719 40.302 -8.805 QT
41.255 -7.891 41.255 -6.281 QT
41.255 -4.656 40.302 -3.742 QT
39.349 -2.828 37.646 -2.828 QT
35.958 -2.828 34.997 -3.742 QT
34.036 -4.656 34.036 -6.281 QT
34.036 -7.891 34.997 -8.805 QT
35.958 -9.719 37.646 -9.719 QT
cp
42.487 -9.563 M
44.534 -9.563 L
45.628 -5.047 L
46.737 -9.563 L
48.487 -9.563 L
49.596 -5.094 L
50.69 -9.563 L
52.737 -9.563 L
51.003 -3 L
48.721 -3 L
47.612 -7.516 L
46.503 -3 L
44.221 -3 L
42.487 -9.563 L
cp
57.508 -5.953 M
56.852 -5.953 56.516 -5.734 QT
56.18 -5.516 56.18 -5.078 QT
56.18 -4.672 56.454 -4.445 QT
56.727 -4.219 57.196 -4.219 QT
57.79 -4.219 58.196 -4.648 QT
58.602 -5.078 58.602 -5.719 QT
58.602 -5.953 L
57.508 -5.953 L
cp
60.712 -6.75 M
60.712 -3 L
58.602 -3 L
58.602 -3.969 L
58.18 -3.375 57.649 -3.102 QT
57.118 -2.828 56.368 -2.828 QT
55.337 -2.828 54.704 -3.422 QT
54.071 -4.016 54.071 -4.969 QT
54.071 -6.125 54.868 -6.664 QT
55.665 -7.203 57.352 -7.203 QT
58.602 -7.203 L
58.602 -7.359 L
58.602 -7.859 58.204 -8.094 QT
57.805 -8.328 56.977 -8.328 QT
56.305 -8.328 55.727 -8.195 QT
55.149 -8.063 54.649 -7.781 QT
54.649 -9.391 L
55.321 -9.547 56.001 -9.633 QT
56.68 -9.719 57.352 -9.719 QT
59.133 -9.719 59.923 -9.023 QT
60.712 -8.328 60.712 -6.75 QT
cp
69.558 -7 M
69.558 -3 L
67.448 -3 L
67.448 -3.656 L
67.448 -6.063 L
67.448 -6.906 67.409 -7.227 QT
67.37 -7.547 67.276 -7.703 QT
67.151 -7.906 66.94 -8.023 QT
66.729 -8.141 66.464 -8.141 QT
65.808 -8.141 65.433 -7.633 QT
65.058 -7.125 65.058 -6.234 QT
65.058 -3 L
62.964 -3 L
62.964 -9.563 L
65.058 -9.563 L
65.058 -8.609 L
65.526 -9.172 66.058 -9.445 QT
66.589 -9.719 67.245 -9.719 QT
68.37 -9.719 68.964 -9.023 QT
69.558 -8.328 69.558 -7 QT
cp
70.943 -9.563 M
73.053 -9.563 L
74.818 -5.109 L
76.318 -9.563 L
78.412 -9.563 L
75.646 -2.375 L
75.24 -1.281 74.685 -0.844 QT
74.131 -0.406 73.225 -0.406 QT
72.006 -0.406 L
72.006 -1.781 L
72.662 -1.781 L
73.193 -1.781 73.435 -1.953 QT
73.678 -2.125 73.818 -2.563 QT
73.881 -2.75 L
70.943 -9.563 L
cp
f
GR
GS
[0.75 0 0 0.75 0 0] CT
1 LJ
2 LW
N
65 72 M
68.88 43.57 L
72.76 26 L
76.64 26 L
80.52 43.57 L
84.4 72 L
88.28 100.43 L
92.16 118 L
96.04 118 L
99.92 100.43 L
103.8 72 L
107.68 43.57 L
111.56 26 L
115.44 26 L
119.32 43.57 L
123.2 72 L
127.08 100.43 L
130.96 118 L
134.84 118 L
138.72 100.43 L
142.6 72 L
146.48 43.57 L
150.36 26 L
154.24 26 L
158.12 43.57 L
162 72 L
165.88 100.43 L
169.76 118 L
173.64 118 L
177.52 100.43 L
181.4 72 L
185.28 43.57 L
189.16 26 L
193.04 26 L
196.92 43.57 L
200.8 72 L
204.68 100.43 L
208.56 118 L
212.44 118 L
216.32 100.43 L
220.2 72 L
224.08 43.57 L
227.96 26 L
231.84 26 L
235.72 43.57 L
239.6 72 L
243.48 100.43 L
247.36 118 L
251.24 118 L
255.12 100.43 L
259 72 L
262.88 43.57 L
266.76 26 L
270.64 26 L
274.52 43.57 L
278.4 72 L
282.28 100.43 L
286.16 118 L
290.04 118 L
293.92 100.43 L
297.8 72 L
301.68 43.57 L
305.56 26 L
309.44 26 L
313.32 43.57 L
317.2 72 L
321.08 100.43 L
324.96 118 L
328.84 118 L
332.72 100.43 L
336.6 72 L
340.48 43.57 L
344.36 26 L
348.24 26 L
352.12 43.57 L
356 72 L
359.88 100.43 L
363.76 118 L
367.64 118 L
371.52 100.43 L
375.4 72 L
379.28 43.57 L
383.16 26 L
387.04 26 L
390.92 43.57 L
394.8 72 L
398.68 100.43 L
402.56 118 L
406.44 118 L
410.32 100.43 L
414.2 72 L
418.08 43.57 L
421.96 26 L
425.84 26 L
429.72 43.57 L
433.6 72 L
437.48 100.43 L
441.36 118 L
445.24 118 L
449.12 100.43 L
453 72 L
S
GR
GS
[0.75 0 0 0.75 0 0] CT
1 GC
N
65 260 M
453 260 L
453 169 L
65 169 L
cp
f
GR
GS
[0.75 0 0 0.75 0 0] CT
0.851 GC
1 LJ
0.667 LW
N
65 260 M
65 169 L
S
GR
GS
[0.75 0 0 0.75 0 0] CT
0.851 GC
1 LJ
0.667 LW
N
142.6 260 M
142.6 169 L
S
GR
GS
[0.75 0 0 0.75 0 0] CT
0.851 GC
1 LJ
0.667 LW
N
220.2 260 M
220.2 169 L
S
GR
GS
[0.75 0 0 0.75 0 0] CT
0.851 GC
1 LJ
0.667 LW
N
297.8 260 M
297.8 169 L
S
GR
GS
[0.75 0 0 0.75 0 0] CT
0.851 GC
1 LJ
0.667 LW
N
375.4 260 M
375.4 169 L
S
GR
GS
[0.75 0 0 0.75 0 0] CT
0.851 GC
1 LJ
0.667 LW
N
453 260 M
453 169 L
S
GR
GS
[0.75 0 0 0.75 0 0] CT
0.851 GC
1 LJ
0.667 LW
N
453 248.673 M
65 248.673 L
S
GR
GS
[0.75 0 0 0.75 0 0] CT
0.851 GC
1 LJ
0.667 LW
N
453 214.5 M
65 214.5 L
S
GR
GS
[0.75 0 0 0.75 0 0] CT
0.851 GC
1 LJ
0.667 LW
N
453 180.327 M
65 180.327 L
S
GR
GS
[0.75 0 0 0.75 0 0] CT
2 setlinecap
1 LJ
0.667 LW
N
65 260 M
453 260 L
S
GR
GS
[0.75 0 0 0.75 0 0] CT
2 setlinecap
1 LJ
0.667 LW
N
65 169 M
453 169 L
S
GR
GS
[0.75 0 0 0.75 0 0] CT
2 setlinecap
1 LJ
0.667 LW
N
65 260 M
65 256.12 L
S
GR
GS
[0.75 0 0 0.75 0 0] CT
2 setlinecap
1 LJ
0.667 LW
N
142.6 260 M
142.6 256.12 L
S
GR
GS
[0.75 0 0 0.75 0 0] CT
2 setlinecap
1 LJ
0.667 LW
N
220.2 260 M
220.2 256.12 L
S
GR
GS
[0.75 0 0 0.75 0 0] CT
2 setlinecap
1 LJ
0.667 LW
N
297.8 260 M
297.8 256.12 L
S
GR
GS
[0.75 0 0 0.75 0 0] CT
2 setlinecap
1 LJ
0.667 LW
N
375.4 260 M
375.4 256.12 L
S
GR
GS
[0.75 0 0 0.75 0 0] CT
2 setlinecap
1 LJ
0.667 LW
N
453 260 M
453 256.12 L
S
GR
GS
[0.75 0 0 0.75 0 0] CT
2 setlinecap
1 LJ
0.667 LW
N
65 169 M
65 172.88 L
S
GR
GS
[0.75 0 0 0.75 0 0] CT
2 setlinecap
1 LJ
0.667 LW
N
142.6 169 M
142.6 172.88 L
S
GR
GS
[0.75 0 0 0.75 0 0] CT
2 setlinecap
1 LJ
0.667 LW
N
220.2 169 M
220.2 172.88 L
S
GR
GS
[0.75 0 0 0.75 0 0] CT
2 setlinecap
1 LJ
0.667 LW
N
297.8 169 M
297.8 172.88 L
S
GR
GS
[0.75 0 0 0.75 0 0] CT
2 setlinecap
1 LJ
0.667 LW
N
375.4 169 M
375.4 172.88 L
S
GR
GS
[0.75 0 0 0.75 0 0] CT
2 setlinecap
1 LJ
0.667 LW
N
453 169 M
453 172.88 L
S
GR
GS
[0.75 0 0 0.75 48.75 197.20001] CT
/Helvetica 11.333 F
GS
[1 0 0 1 0 0] CT
-4 11 moveto 
1 -1 scale
(0) t 
GR
GR
GS
[0.75 0 0 0.75 106.94999 197.20001] CT
/Helvetica 11.333 F
GS
[1 0 0 1 0 0] CT
-13 11 moveto 
1 -1 scale
(0.02) t 
GR
GR
GS
[0.75 0 0 0.75 165.15 197.20001] CT
/Helvetica 11.333 F
GS
[1 0 0 1 0 0] CT
-13 11 moveto 
1 -1 scale
(0.04) t 
GR
GR
GS
[0.75 0 0 0.75 223.34999 197.20001] CT
/Helvetica 11.333 F
GS
[1 0 0 1 0 0] CT
-13 11 moveto 
1 -1 scale
(0.06) t 
GR
GR
GS
[0.75 0 0 0.75 281.55 197.20001] CT
/Helvetica 11.333 F
GS
[1 0 0 1 0 0] CT
-13 11 moveto 
1 -1 scale
(0.08) t 
GR
GR
GS
[0.75 0 0 0.75 339.75 197.20001] CT
/Helvetica 11.333 F
GS
[1 0 0 1 0 0] CT
-9 11 moveto 
1 -1 scale
(0.1) t 
GR
GR
GS
[0.75 0 0 0.75 194.25014 207.95] CT
/Helvetica 12.467 F
GS
[1 0 0 1 0 0] CT
-13 12 moveto 
1 -1 scale
(t [s]) t 
GR
GR
GS
[0.75 0 0 0.75 0 0] CT
2 setlinecap
1 LJ
0.667 LW
N
65 260 M
65 169 L
S
GR
GS
[0.75 0 0 0.75 0 0] CT
2 setlinecap
1 LJ
0.667 LW
N
453 260 M
453 169 L
S
GR
GS
[0.75 0 0 0.75 0 0] CT
2 setlinecap
1 LJ
0.667 LW
N
65 248.673 M
68.88 248.673 L
S
GR
GS
[0.75 0 0 0.75 0 0] CT
2 setlinecap
1 LJ
0.667 LW
N
65 214.5 M
68.88 214.5 L
S
GR
GS
[0.75 0 0 0.75 0 0] CT
2 setlinecap
1 LJ
0.667 LW
N
65 180.327 M
68.88 180.327 L
S
GR
GS
[0.75 0 0 0.75 0 0] CT
2 setlinecap
1 LJ
0.667 LW
N
453 248.673 M
449.12 248.673 L
S
GR
GS
[0.75 0 0 0.75 0 0] CT
2 setlinecap
1 LJ
0.667 LW
N
453 214.5 M
449.12 214.5 L
S
GR
GS
[0.75 0 0 0.75 0 0] CT
2 setlinecap
1 LJ
0.667 LW
N
453 180.327 M
449.12 180.327 L
S
GR
GS
[0.75 0 0 0.75 46.55 186.50438] CT
/Helvetica 11.333 F
GS
[1 0 0 1 0 0] CT
-23 4 moveto 
1 -1 scale
(-0.5) t 
GR
GR
GS
[0.75 0 0 0.75 46.55 160.875] CT
/Helvetica 11.333 F
GS
[1 0 0 1 0 0] CT
-8 4 moveto 
1 -1 scale
(0) t 
GR
GR
GS
[0.75 0 0 0.75 46.55 135.24562] CT
/Helvetica 11.333 F
GS
[1 0 0 1 0 0] CT
-18 4 moveto 
1 -1 scale
(0.5) t 
GR
GR
GS
[0 -0.75 0.75 0 27.8 160.87497] CT
/Helvetica 12.467 F
GS
[1 0 0 1 0 0] CT
-20.5 -3 moveto 
1 -1 scale
(y\(t\) [-]) t 
GR
GR
GS
[0.75 0 0 0.75 194.25018 124.99687] CT
N
-80.313 -11.469 M
-80.313 -9.625 L
-81.031 -9.938 -81.719 -10.102 QT
-82.406 -10.266 -83.016 -10.266 QT
-83.813 -10.266 -84.203 -10.047 QT
-84.594 -9.828 -84.594 -9.359 QT
-84.594 -9 -84.336 -8.805 QT
-84.078 -8.609 -83.391 -8.469 QT
-82.422 -8.281 L
-80.969 -7.984 -80.352 -7.391 QT
-79.734 -6.797 -79.734 -5.688 QT
-79.734 -4.25 -80.594 -3.539 QT
-81.453 -2.828 -83.219 -2.828 QT
-84.047 -2.828 -84.883 -2.984 QT
-85.719 -3.141 -86.563 -3.453 QT
-86.563 -5.359 L
-85.719 -4.922 -84.938 -4.695 QT
-84.156 -4.469 -83.438 -4.469 QT
-82.688 -4.469 -82.297 -4.711 QT
-81.906 -4.953 -81.906 -5.422 QT
-81.906 -5.828 -82.172 -6.047 QT
-82.438 -6.266 -83.234 -6.453 QT
-84.109 -6.641 L
-85.422 -6.922 -86.031 -7.539 QT
-86.641 -8.156 -86.641 -9.188 QT
-86.641 -10.5 -85.797 -11.203 QT
-84.953 -11.906 -83.375 -11.906 QT
-82.641 -11.906 -81.883 -11.797 QT
-81.125 -11.688 -80.313 -11.469 QT
cp
-78.402 -9.563 M
-76.292 -9.563 L
-74.527 -5.109 L
-73.027 -9.563 L
-70.933 -9.563 L
-73.699 -2.375 L
-74.105 -1.281 -74.66 -0.844 QT
-75.214 -0.406 -76.12 -0.406 QT
-77.339 -0.406 L
-77.339 -1.781 L
-76.683 -1.781 L
-76.152 -1.781 -75.91 -1.953 QT
-75.667 -2.125 -75.527 -2.563 QT
-75.464 -2.75 L
-78.402 -9.563 L
cp
-64.966 -4.109 M
-65.388 -3.547 -65.911 -3.273 QT
-66.435 -3 -67.122 -3 QT
-68.326 -3 -69.107 -3.945 QT
-69.888 -4.891 -69.888 -6.359 QT
-69.888 -7.828 -69.107 -8.766 QT
-68.326 -9.703 -67.122 -9.703 QT
-66.435 -9.703 -65.911 -9.438 QT
-65.388 -9.172 -64.966 -8.594 QT
-64.966 -9.563 L
-62.857 -9.563 L
-62.857 -3.656 L
-62.857 -2.078 -63.857 -1.242 QT
-64.857 -0.406 -66.747 -0.406 QT
-67.357 -0.406 -67.935 -0.5 QT
-68.513 -0.594 -69.091 -0.797 QT
-69.091 -2.422 L
-68.544 -2.109 -68.013 -1.953 QT
-67.482 -1.797 -66.951 -1.797 QT
-65.919 -1.797 -65.443 -2.25 QT
-64.966 -2.703 -64.966 -3.656 QT
-64.966 -4.109 L
cp
-66.341 -8.203 M
-66.997 -8.203 -67.357 -7.719 QT
-67.716 -7.234 -67.716 -6.359 QT
-67.716 -5.453 -67.365 -4.992 QT
-67.013 -4.531 -66.341 -4.531 QT
-65.685 -4.531 -65.326 -5.008 QT
-64.966 -5.484 -64.966 -6.359 QT
-64.966 -7.234 -65.326 -7.719 QT
-65.685 -8.203 -66.341 -8.203 QT
cp
-53.922 -7 M
-53.922 -3 L
-56.032 -3 L
-56.032 -3.656 L
-56.032 -6.063 L
-56.032 -6.906 -56.071 -7.227 QT
-56.11 -7.547 -56.204 -7.703 QT
-56.329 -7.906 -56.54 -8.023 QT
-56.751 -8.141 -57.016 -8.141 QT
-57.672 -8.141 -58.047 -7.633 QT
-58.422 -7.125 -58.422 -6.234 QT
-58.422 -3 L
-60.516 -3 L
-60.516 -9.563 L
-58.422 -9.563 L
-58.422 -8.609 L
-57.954 -9.172 -57.422 -9.445 QT
-56.891 -9.719 -56.235 -9.719 QT
-55.11 -9.719 -54.516 -9.023 QT
-53.922 -8.328 -53.922 -7 QT
cp
-48.724 -5.953 M
-49.381 -5.953 -49.716 -5.734 QT
-50.052 -5.516 -50.052 -5.078 QT
-50.052 -4.672 -49.779 -4.445 QT
-49.506 -4.219 -49.037 -4.219 QT
-48.443 -4.219 -48.037 -4.648 QT
-47.631 -5.078 -47.631 -5.719 QT
-47.631 -5.953 L
-48.724 -5.953 L
cp
-45.521 -6.75 M
-45.521 -3 L
-47.631 -3 L
-47.631 -3.969 L
-48.052 -3.375 -48.584 -3.102 QT
-49.115 -2.828 -49.865 -2.828 QT
-50.896 -2.828 -51.529 -3.422 QT
-52.162 -4.016 -52.162 -4.969 QT
-52.162 -6.125 -51.365 -6.664 QT
-50.568 -7.203 -48.881 -7.203 QT
-47.631 -7.203 L
-47.631 -7.359 L
-47.631 -7.859 -48.029 -8.094 QT
-48.427 -8.328 -49.256 -8.328 QT
-49.927 -8.328 -50.506 -8.195 QT
-51.084 -8.063 -51.584 -7.781 QT
-51.584 -9.391 L
-50.912 -9.547 -50.232 -9.633 QT
-49.552 -9.719 -48.881 -9.719 QT
-47.099 -9.719 -46.31 -9.023 QT
-45.521 -8.328 -45.521 -6.75 QT
cp
-43.113 -12.125 M
-41.003 -12.125 L
-41.003 -9.188 L
-40.253 -9.703 L
-39.597 -8.797 L
-41.003 -7.828 L
-41.003 -3 L
-43.113 -3 L
-43.113 -6.75 L
-43.847 -6.25 L
-44.503 -7.156 L
-43.113 -8.109 L
-43.113 -12.125 L
cp
-31.214 -8.219 M
-31.902 -8.219 -32.269 -7.719 QT
-32.636 -7.219 -32.636 -6.281 QT
-32.636 -5.328 -32.269 -4.828 QT
-31.902 -4.328 -31.214 -4.328 QT
-30.527 -4.328 -30.159 -4.828 QT
-29.792 -5.328 -29.792 -6.281 QT
-29.792 -7.219 -30.159 -7.719 QT
-30.527 -8.219 -31.214 -8.219 QT
cp
-31.214 -9.719 M
-29.511 -9.719 -28.558 -8.805 QT
-27.605 -7.891 -27.605 -6.281 QT
-27.605 -4.656 -28.558 -3.742 QT
-29.511 -2.828 -31.214 -2.828 QT
-32.902 -2.828 -33.862 -3.742 QT
-34.823 -4.656 -34.823 -6.281 QT
-34.823 -7.891 -33.862 -8.805 QT
-32.902 -9.719 -31.214 -9.719 QT
cp
-21.326 -8.609 M
-21.326 -12.125 L
-19.216 -12.125 L
-19.216 -3 L
-21.326 -3 L
-21.326 -3.953 L
-21.747 -3.375 -22.271 -3.102 QT
-22.794 -2.828 -23.482 -2.828 QT
-24.701 -2.828 -25.474 -3.797 QT
-26.247 -4.766 -26.247 -6.281 QT
-26.247 -7.797 -25.474 -8.758 QT
-24.701 -9.719 -23.482 -9.719 QT
-22.81 -9.719 -22.279 -9.445 QT
-21.747 -9.172 -21.326 -8.609 QT
cp
-22.701 -4.359 M
-22.029 -4.359 -21.677 -4.852 QT
-21.326 -5.344 -21.326 -6.281 QT
-21.326 -7.219 -21.677 -7.711 QT
-22.029 -8.203 -22.701 -8.203 QT
-23.372 -8.203 -23.724 -7.711 QT
-24.076 -7.219 -24.076 -6.281 QT
-24.076 -5.344 -23.724 -4.852 QT
-23.372 -4.359 -22.701 -4.359 QT
cp
-11.579 -9.359 M
-11.579 -7.641 L
-12.001 -7.938 -12.438 -8.078 QT
-12.876 -8.219 -13.329 -8.219 QT
-14.204 -8.219 -14.696 -7.711 QT
-15.188 -7.203 -15.188 -6.281 QT
-15.188 -5.359 -14.696 -4.844 QT
-14.204 -4.328 -13.329 -4.328 QT
-12.844 -4.328 -12.399 -4.477 QT
-11.954 -4.625 -11.579 -4.906 QT
-11.579 -3.188 L
-12.079 -3.016 -12.579 -2.922 QT
-13.079 -2.828 -13.594 -2.828 QT
-15.376 -2.828 -16.376 -3.742 QT
-17.376 -4.656 -17.376 -6.281 QT
-17.376 -7.906 -16.376 -8.813 QT
-15.376 -9.719 -13.594 -9.719 QT
-13.079 -9.719 -12.579 -9.633 QT
-12.079 -9.547 -11.579 -9.359 QT
cp
-9.831 -9.563 M
-4.112 -9.563 L
-4.112 -8.094 L
-7.566 -4.5 L
-4.112 -4.5 L
-4.112 -3 L
-9.972 -3 L
-9.972 -4.469 L
-6.519 -8.063 L
-9.831 -8.063 L
-9.831 -9.563 L
cp
-3.139 -9.563 M
-1.03 -9.563 L
0.736 -5.109 L
2.236 -9.563 L
4.33 -9.563 L
1.564 -2.375 L
1.158 -1.281 0.603 -0.844 QT
0.048 -0.406 -0.858 -0.406 QT
-2.077 -0.406 L
-2.077 -1.781 L
-1.42 -1.781 L
-0.889 -1.781 -0.647 -1.953 QT
-0.405 -2.125 -0.264 -2.563 QT
-0.202 -2.75 L
-3.139 -9.563 L
cp
8.125 -11.422 M
8.125 -9.563 L
10.297 -9.563 L
10.297 -8.063 L
8.125 -8.063 L
8.125 -5.281 L
8.125 -4.828 8.304 -4.664 QT
8.484 -4.5 9.031 -4.5 QT
10.109 -4.5 L
10.109 -3 L
8.312 -3 L
7.062 -3 6.547 -3.516 QT
6.031 -4.031 6.031 -5.281 QT
6.031 -8.063 L
4.984 -8.063 L
4.984 -9.563 L
6.031 -9.563 L
6.031 -11.422 L
8.125 -11.422 L
cp
14.726 -5.953 M
14.07 -5.953 13.734 -5.734 QT
13.398 -5.516 13.398 -5.078 QT
13.398 -4.672 13.672 -4.445 QT
13.945 -4.219 14.414 -4.219 QT
15.008 -4.219 15.414 -4.648 QT
15.82 -5.078 15.82 -5.719 QT
15.82 -5.953 L
14.726 -5.953 L
cp
17.93 -6.75 M
17.93 -3 L
15.82 -3 L
15.82 -3.969 L
15.398 -3.375 14.867 -3.102 QT
14.336 -2.828 13.586 -2.828 QT
12.555 -2.828 11.922 -3.422 QT
11.289 -4.016 11.289 -4.969 QT
11.289 -6.125 12.086 -6.664 QT
12.883 -7.203 14.57 -7.203 QT
15.82 -7.203 L
15.82 -7.359 L
15.82 -7.859 15.422 -8.094 QT
15.023 -8.328 14.195 -8.328 QT
13.523 -8.328 12.945 -8.195 QT
12.367 -8.063 11.867 -7.781 QT
11.867 -9.391 L
12.539 -9.547 13.219 -9.633 QT
13.898 -9.719 14.57 -9.719 QT
16.351 -9.719 17.14 -9.023 QT
17.93 -8.328 17.93 -6.75 QT
cp
26.776 -7 M
26.776 -3 L
24.666 -3 L
24.666 -3.656 L
24.666 -6.063 L
24.666 -6.906 24.627 -7.227 QT
24.588 -7.547 24.494 -7.703 QT
24.369 -7.906 24.158 -8.023 QT
23.947 -8.141 23.682 -8.141 QT
23.026 -8.141 22.651 -7.633 QT
22.276 -7.125 22.276 -6.234 QT
22.276 -3 L
20.182 -3 L
20.182 -9.563 L
22.276 -9.563 L
22.276 -8.609 L
22.744 -9.172 23.276 -9.445 QT
23.807 -9.719 24.463 -9.719 QT
25.588 -9.719 26.182 -9.023 QT
26.776 -8.328 26.776 -7 QT
cp
28.161 -9.563 M
30.271 -9.563 L
32.036 -5.109 L
33.536 -9.563 L
35.63 -9.563 L
32.864 -2.375 L
32.458 -1.281 31.903 -0.844 QT
31.349 -0.406 30.442 -0.406 QT
29.224 -0.406 L
29.224 -1.781 L
29.88 -1.781 L
30.411 -1.781 30.653 -1.953 QT
30.896 -2.125 31.036 -2.563 QT
31.099 -2.75 L
28.161 -9.563 L
cp
41.146 -9.563 M
46.864 -9.563 L
46.864 -8.094 L
43.411 -4.5 L
46.864 -4.5 L
46.864 -3 L
41.005 -3 L
41.005 -4.469 L
44.458 -8.063 L
41.146 -8.063 L
41.146 -9.563 L
cp
55.137 -3.953 M
55.137 -0.5 L
53.043 -0.5 L
53.043 -9.563 L
55.137 -9.563 L
55.137 -8.609 L
55.574 -9.172 56.097 -9.445 QT
56.621 -9.719 57.308 -9.719 QT
58.527 -9.719 59.301 -8.758 QT
60.074 -7.797 60.074 -6.281 QT
60.074 -4.766 59.301 -3.797 QT
58.527 -2.828 57.308 -2.828 QT
56.621 -2.828 56.097 -3.102 QT
55.574 -3.375 55.137 -3.953 QT
cp
56.527 -8.203 M
55.855 -8.203 55.496 -7.703 QT
55.137 -7.203 55.137 -6.281 QT
55.137 -5.344 55.496 -4.852 QT
55.855 -4.359 56.527 -4.359 QT
57.199 -4.359 57.558 -4.852 QT
57.918 -5.344 57.918 -6.281 QT
57.918 -7.219 57.558 -7.711 QT
57.199 -8.203 56.527 -8.203 QT
cp
61.946 -12.125 M
64.04 -12.125 L
64.04 -3 L
61.946 -3 L
61.946 -12.125 L
cp
66.209 -9.563 M
68.303 -9.563 L
68.303 -3 L
66.209 -3 L
66.209 -9.563 L
cp
66.209 -12.125 M
68.303 -12.125 L
68.303 -10.406 L
66.209 -10.406 L
66.209 -12.125 L
cp
70.472 -12.125 M
72.566 -12.125 L
72.566 -7.156 L
74.972 -9.563 L
77.41 -9.563 L
74.207 -6.547 L
77.66 -3 L
75.129 -3 L
72.566 -5.734 L
72.566 -3 L
70.472 -3 L
70.472 -12.125 L
cp
78.666 -5.563 M
78.666 -9.563 L
80.775 -9.563 L
80.775 -8.906 L
80.775 -8.375 80.767 -7.57 QT
80.759 -6.766 80.759 -6.5 QT
80.759 -5.703 80.806 -5.352 QT
80.853 -5 80.947 -4.844 QT
81.072 -4.641 81.283 -4.531 QT
81.494 -4.422 81.759 -4.422 QT
82.416 -4.422 82.791 -4.922 QT
83.166 -5.422 83.166 -6.328 QT
83.166 -9.563 L
85.259 -9.563 L
85.259 -3 L
83.166 -3 L
83.166 -3.953 L
82.697 -3.375 82.166 -3.102 QT
81.634 -2.828 80.994 -2.828 QT
79.853 -2.828 79.259 -3.523 QT
78.666 -4.219 78.666 -5.563 QT
cp
f
GR
GS
[0.75 0 0 0.75 0 0] CT
1 LJ
2 LW
N
65 214.5 M
68.88 186.379 L
72.76 169 L
76.64 169 L
80.52 186.379 L
84.4 214.5 L
88.28 242.621 L
92.16 260 L
96.04 260 L
99.92 242.621 L
103.8 214.5 L
107.68 186.379 L
111.56 169 L
115.44 169 L
119.32 186.379 L
123.2 214.5 L
127.08 242.621 L
130.96 260 L
134.84 260 L
138.72 242.621 L
142.6 214.5 L
146.48 186.379 L
150.36 169 L
154.24 169 L
158.12 186.379 L
162 214.5 L
165.88 242.621 L
169.76 260 L
173.64 260 L
177.52 242.621 L
181.4 214.5 L
185.28 186.379 L
189.16 169 L
193.04 169 L
196.92 186.379 L
200.8 214.5 L
204.68 242.621 L
208.56 260 L
212.44 260 L
216.32 242.621 L
220.2 214.5 L
224.08 186.379 L
227.96 169 L
231.84 169 L
235.72 186.379 L
239.6 214.5 L
243.48 242.621 L
247.36 260 L
251.24 260 L
255.12 242.621 L
259 214.5 L
262.88 186.379 L
266.76 169 L
270.64 169 L
274.52 186.379 L
278.4 214.5 L
282.28 242.621 L
286.16 260 L
290.04 260 L
293.92 242.621 L
297.8 214.5 L
301.68 186.379 L
305.56 169 L
309.44 169 L
313.32 186.379 L
317.2 214.5 L
321.08 242.621 L
324.96 260 L
328.84 260 L
332.72 242.621 L
336.6 214.5 L
340.48 186.379 L
344.36 169 L
348.24 169 L
352.12 186.379 L
356 214.5 L
359.88 242.621 L
363.76 260 L
367.64 260 L
371.52 242.621 L
375.4 214.5 L
379.28 186.379 L
383.16 169 L
387.04 169 L
390.92 186.379 L
394.8 214.5 L
398.68 242.621 L
402.56 260 L
406.44 260 L
410.32 242.621 L
414.2 214.5 L
418.08 186.379 L
421.96 169 L
425.84 169 L
429.72 186.379 L
433.6 214.5 L
437.48 242.621 L
441.36 260 L
445.24 260 L
449.12 242.621 L
453 214.5 L
S
GR
%%Trailer
%%Pages: 1
%%EOF
