\relax 
\@writefile{toc}{\contentsline {chapter}{\numberline {1}Laboratorium 1}{4}\protected@file@percent }
\@writefile{lof}{\addvspace {10\p@ }}
\@writefile{lot}{\addvspace {10\p@ }}
\@writefile{toc}{\contentsline {section}{\numberline {1.1}Cel laboratorium}{4}\protected@file@percent }
\@writefile{toc}{\contentsline {section}{\numberline {1.2}Programy}{4}\protected@file@percent }
\@writefile{lof}{\contentsline {figure}{\numberline {1.1}{\ignorespaces Wykres uzyskany z programu lab1.m\relax }}{4}\protected@file@percent }
\providecommand*\caption@xref[2]{\@setref\relax\@undefined{#1}}
\newlabel{fig:l1f1}{{1.1}{4}}
\newlabel{prog:lab1}{{1.1}{5}}
\@writefile{lol}{\contentsline {lstlisting}{\numberline {1.1}Kod źródłowy programu lab1.m}{5}\protected@file@percent }
\@writefile{toc}{\contentsline {chapter}{\numberline {2}Laboratorium 2}{6}\protected@file@percent }
\@writefile{lof}{\addvspace {10\p@ }}
\@writefile{lot}{\addvspace {10\p@ }}
\@writefile{toc}{\contentsline {section}{\numberline {2.1}Cel laboratorium}{6}\protected@file@percent }
\@writefile{toc}{\contentsline {section}{\numberline {2.2}Programy}{6}\protected@file@percent }
\@writefile{lof}{\contentsline {figure}{\numberline {2.1}{\ignorespaces Wykresy z programu lab2.m\relax }}{7}\protected@file@percent }
\newlabel{fig:l2f1}{{2.1}{7}}
\@writefile{lof}{\contentsline {subfigure}{\numberline{(a)}{\ignorespaces {Sygnał 1}}}{7}\protected@file@percent }
\@writefile{lof}{\contentsline {subfigure}{\numberline{(b)}{\ignorespaces {Sygnał 2}}}{7}\protected@file@percent }
\@writefile{lof}{\contentsline {subfigure}{\numberline{(c)}{\ignorespaces {Sygnał 3}}}{7}\protected@file@percent }
\@writefile{lof}{\contentsline {subfigure}{\numberline{(d)}{\ignorespaces {Sygnał 4}}}{7}\protected@file@percent }
\@writefile{lof}{\contentsline {subfigure}{\numberline{(e)}{\ignorespaces {Parametry sygnałów}}}{7}\protected@file@percent }
\newlabel{prog:lab2}{{2.1}{8}}
\@writefile{lol}{\contentsline {lstlisting}{\numberline {2.1}Kod źródłowy programu lab2.m}{8}\protected@file@percent }
\@writefile{toc}{\contentsline {chapter}{\numberline {3}Laboratorium 3}{9}\protected@file@percent }
\@writefile{lof}{\addvspace {10\p@ }}
\@writefile{lot}{\addvspace {10\p@ }}
\@writefile{toc}{\contentsline {section}{\numberline {3.1}Cel laboratorium}{9}\protected@file@percent }
\@writefile{toc}{\contentsline {section}{\numberline {3.2}Programy}{9}\protected@file@percent }
\@writefile{lof}{\contentsline {figure}{\numberline {3.1}{\ignorespaces Wykresy z programu lab3.m\relax }}{9}\protected@file@percent }
\newlabel{fig:l3}{{3.1}{9}}
\@writefile{lof}{\contentsline {subfigure}{\numberline{(a)}{\ignorespaces {Sygnał 1}}}{9}\protected@file@percent }
\@writefile{lof}{\contentsline {subfigure}{\numberline{(b)}{\ignorespaces {Sygnał 2}}}{9}\protected@file@percent }
\newlabel{prog:lab3}{{3.1}{10}}
\@writefile{lol}{\contentsline {lstlisting}{\numberline {3.1}Kod źródłowy programu lab3.m}{10}\protected@file@percent }
\@writefile{toc}{\contentsline {chapter}{\numberline {4}Laboratorium 4}{11}\protected@file@percent }
\@writefile{lof}{\addvspace {10\p@ }}
\@writefile{lot}{\addvspace {10\p@ }}
\newlabel{chapter:l4}{{4}{11}}
\@writefile{toc}{\contentsline {section}{\numberline {4.1}Cel laboratorium}{11}\protected@file@percent }
\@writefile{toc}{\contentsline {section}{\numberline {4.2}Programy}{11}\protected@file@percent }
\@writefile{lof}{\contentsline {figure}{\numberline {4.1}{\ignorespaces Wygenerowane sygnały\relax }}{12}\protected@file@percent }
\newlabel{fig:lab4_1}{{4.1}{12}}
\@writefile{lof}{\contentsline {subfigure}{\numberline{(a)}{\ignorespaces {Prostokątny bipolarny}}}{12}\protected@file@percent }
\@writefile{lof}{\contentsline {subfigure}{\numberline{(b)}{\ignorespaces {Prostokątny unipolarny}}}{12}\protected@file@percent }
\@writefile{lof}{\contentsline {subfigure}{\numberline{(c)}{\ignorespaces {Prostokątny unipolarny}}}{12}\protected@file@percent }
\@writefile{lof}{\contentsline {subfigure}{\numberline{(d)}{\ignorespaces {Trójkątny bipolarny}}}{12}\protected@file@percent }
\@writefile{lof}{\contentsline {subfigure}{\numberline{(e)}{\ignorespaces {Trójkątny bipolarny}}}{12}\protected@file@percent }
\@writefile{lof}{\contentsline {subfigure}{\numberline{(f)}{\ignorespaces {Trójkątny unipolarny}}}{12}\protected@file@percent }
\@writefile{lof}{\contentsline {figure}{\numberline {4.2}{\ignorespaces Wygenerowane sygnały - cd.\relax }}{13}\protected@file@percent }
\newlabel{fig:lab4_2}{{4.2}{13}}
\@writefile{lof}{\contentsline {subfigure}{\numberline{(a)}{\ignorespaces {Trójkątny unipolarny}}}{13}\protected@file@percent }
\@writefile{lof}{\contentsline {subfigure}{\numberline{(b)}{\ignorespaces {Sinusoidalny wyprostowany jednopołówkowo}}}{13}\protected@file@percent }
\@writefile{lof}{\contentsline {subfigure}{\numberline{(c)}{\ignorespaces {Sinusoidalny wyprostowany dwupołówkowo}}}{13}\protected@file@percent }
\newlabel{prog:lab4}{{4.1}{14}}
\@writefile{lol}{\contentsline {lstlisting}{\numberline {4.1}Kod źródłowy programu lab4.m}{14}\protected@file@percent }
\@writefile{toc}{\contentsline {chapter}{\numberline {5}Laboratorium 5}{17}\protected@file@percent }
\@writefile{lof}{\addvspace {10\p@ }}
\@writefile{lot}{\addvspace {10\p@ }}
\@writefile{toc}{\contentsline {section}{\numberline {5.1}Cel laboratorium}{17}\protected@file@percent }
\@writefile{toc}{\contentsline {section}{\numberline {5.2}Programy}{17}\protected@file@percent }
\@writefile{lof}{\contentsline {figure}{\numberline {5.1}{\ignorespaces Wykres z programu lab5\_1.m\relax }}{17}\protected@file@percent }
\newlabel{fig:l5_1}{{5.1}{17}}
\@writefile{lof}{\contentsline {figure}{\numberline {5.2}{\ignorespaces Wykresy z programu lab5\_2.m\relax }}{18}\protected@file@percent }
\newlabel{fig:l5_2}{{5.2}{18}}
\@writefile{lof}{\contentsline {subfigure}{\numberline{(a)}{\ignorespaces {Sygnał 1}}}{18}\protected@file@percent }
\@writefile{lof}{\contentsline {subfigure}{\numberline{(b)}{\ignorespaces {Gęstość widmowa sygnału 1}}}{18}\protected@file@percent }
\@writefile{lof}{\contentsline {subfigure}{\numberline{(c)}{\ignorespaces {Widmo sygnału 1}}}{18}\protected@file@percent }
\@writefile{lof}{\contentsline {subfigure}{\numberline{(d)}{\ignorespaces {Sygnał 2}}}{18}\protected@file@percent }
\@writefile{lof}{\contentsline {subfigure}{\numberline{(e)}{\ignorespaces {Gęstość widmowa sygnału 2}}}{18}\protected@file@percent }
\@writefile{lof}{\contentsline {subfigure}{\numberline{(f)}{\ignorespaces {Widmo sygnału 2}}}{18}\protected@file@percent }
\@writefile{lof}{\contentsline {figure}{\numberline {5.3}{\ignorespaces Wykresy z programu lab5\_2.m cd.\relax }}{19}\protected@file@percent }
\newlabel{fig:l5_3}{{5.3}{19}}
\@writefile{lof}{\contentsline {subfigure}{\numberline{(a)}{\ignorespaces {Sygnał 3}}}{19}\protected@file@percent }
\@writefile{lof}{\contentsline {subfigure}{\numberline{(b)}{\ignorespaces {Gęstość widmowa sygnału 3}}}{19}\protected@file@percent }
\@writefile{lof}{\contentsline {subfigure}{\numberline{(c)}{\ignorespaces {Widmo sygnału 3}}}{19}\protected@file@percent }
\@writefile{lof}{\contentsline {subfigure}{\numberline{(d)}{\ignorespaces {Sygnał 4}}}{19}\protected@file@percent }
\@writefile{lof}{\contentsline {subfigure}{\numberline{(e)}{\ignorespaces {Gęstość widmowa sygnału 4}}}{19}\protected@file@percent }
\@writefile{lof}{\contentsline {subfigure}{\numberline{(f)}{\ignorespaces {Widmo sygnału 4}}}{19}\protected@file@percent }
\@writefile{lof}{\contentsline {figure}{\numberline {5.4}{\ignorespaces Wykresy z programu lab5\_2.m cd.\relax }}{20}\protected@file@percent }
\newlabel{fig:l5_4}{{5.4}{20}}
\@writefile{lof}{\contentsline {subfigure}{\numberline{(a)}{\ignorespaces {Sygnał 5}}}{20}\protected@file@percent }
\@writefile{lof}{\contentsline {subfigure}{\numberline{(b)}{\ignorespaces {Gęstość widmowa sygnału 5}}}{20}\protected@file@percent }
\@writefile{lof}{\contentsline {subfigure}{\numberline{(c)}{\ignorespaces {Widmo sygnału 15}}}{20}\protected@file@percent }
\@writefile{lof}{\contentsline {subfigure}{\numberline{(d)}{\ignorespaces {Sygnał 6}}}{20}\protected@file@percent }
\@writefile{lof}{\contentsline {subfigure}{\numberline{(e)}{\ignorespaces {Gęstość widmowa sygnału 6}}}{20}\protected@file@percent }
\@writefile{lof}{\contentsline {subfigure}{\numberline{(f)}{\ignorespaces {Widmo sygnału 6}}}{20}\protected@file@percent }
\@writefile{lof}{\contentsline {figure}{\numberline {5.5}{\ignorespaces Wykresy z programu lab5\_2.m cd.\relax }}{21}\protected@file@percent }
\newlabel{fig:l5_5}{{5.5}{21}}
\@writefile{lof}{\contentsline {subfigure}{\numberline{(a)}{\ignorespaces {Sygnał 7}}}{21}\protected@file@percent }
\@writefile{lof}{\contentsline {subfigure}{\numberline{(b)}{\ignorespaces {Gęstość widmowa sygnału 7}}}{21}\protected@file@percent }
\@writefile{lof}{\contentsline {subfigure}{\numberline{(c)}{\ignorespaces {Widmo sygnału 21}}}{21}\protected@file@percent }
\@writefile{lof}{\contentsline {subfigure}{\numberline{(d)}{\ignorespaces {Sygnał 8}}}{21}\protected@file@percent }
\@writefile{lof}{\contentsline {subfigure}{\numberline{(e)}{\ignorespaces {Gęstość widmowa sygnału 8}}}{21}\protected@file@percent }
\@writefile{lof}{\contentsline {subfigure}{\numberline{(f)}{\ignorespaces {Widmo sygnału 8}}}{21}\protected@file@percent }
\@writefile{lof}{\contentsline {figure}{\numberline {5.6}{\ignorespaces Wykresy z programu lab5\_3.m\relax }}{22}\protected@file@percent }
\newlabel{fig:l5_6}{{5.6}{22}}
\@writefile{lof}{\contentsline {subfigure}{\numberline{(a)}{\ignorespaces {Charakterystyki filtra RC}}}{22}\protected@file@percent }
\@writefile{lof}{\contentsline {subfigure}{\numberline{(b)}{\ignorespaces {Odpowiedź impulsowa}}}{22}\protected@file@percent }
\@writefile{lof}{\contentsline {subfigure}{\numberline{(c)}{\ignorespaces {Odpowiedź skokowa}}}{22}\protected@file@percent }
\@writefile{lof}{\contentsline {subfigure}{\numberline{(d)}{\ignorespaces {Rozmieszczenie biegunów}}}{22}\protected@file@percent }
\@writefile{lof}{\contentsline {figure}{\numberline {5.7}{\ignorespaces Wykresy z programu lab5\_4.m\relax }}{23}\protected@file@percent }
\newlabel{fig:l5_7}{{5.7}{23}}
\@writefile{lof}{\contentsline {subfigure}{\numberline{(a)}{\ignorespaces {Charakterystyki filtra RLC}}}{23}\protected@file@percent }
\@writefile{lof}{\contentsline {subfigure}{\numberline{(b)}{\ignorespaces {Odpowiedź impulsowa}}}{23}\protected@file@percent }
\@writefile{lof}{\contentsline {subfigure}{\numberline{(c)}{\ignorespaces {Odpowiedź skokowa}}}{23}\protected@file@percent }
\@writefile{lof}{\contentsline {subfigure}{\numberline{(d)}{\ignorespaces {Rozmieszczenie biegunów}}}{23}\protected@file@percent }
\newlabel{prog:lab5_1}{{5.1}{24}}
\@writefile{lol}{\contentsline {lstlisting}{\numberline {5.1}Kod źródłowy programu lab5\_1.m}{24}\protected@file@percent }
\newlabel{prog:lab5_2}{{5.2}{24}}
\@writefile{lol}{\contentsline {lstlisting}{\numberline {5.2}Kod źródłowy programu lab5\_2.m}{24}\protected@file@percent }
\newlabel{prog:lab5_3}{{5.3}{31}}
\@writefile{lol}{\contentsline {lstlisting}{\numberline {5.3}Kod źródłowy programu lab5\_3.m}{31}\protected@file@percent }
\newlabel{prog:lab5_4}{{5.4}{32}}
\@writefile{lol}{\contentsline {lstlisting}{\numberline {5.4}Kod źródłowy programu lab5\_4.m}{32}\protected@file@percent }
\@writefile{toc}{\contentsline {chapter}{\numberline {6}Laboratorium 6}{33}\protected@file@percent }
\@writefile{lof}{\addvspace {10\p@ }}
\@writefile{lot}{\addvspace {10\p@ }}
\@writefile{toc}{\contentsline {section}{\numberline {6.1}Cel laboratorium}{33}\protected@file@percent }
\@writefile{toc}{\contentsline {section}{\numberline {6.2}Programy}{33}\protected@file@percent }
\@writefile{lot}{\contentsline {table}{\numberline {6.1}{\ignorespaces Zadane transmitancje\relax }}{33}\protected@file@percent }
\newlabel{tab:transmi}{{6.1}{33}}
\@writefile{lof}{\contentsline {figure}{\numberline {6.1}{\ignorespaces Wykresy z programu lab6\_1.m, transmitancja 1\relax }}{34}\protected@file@percent }
\newlabel{fig:l6f1}{{6.1}{34}}
\@writefile{lof}{\contentsline {figure}{\numberline {6.2}{\ignorespaces Wykresy z programu lab6\_1.m, transmitancja 2\relax }}{35}\protected@file@percent }
\newlabel{fig:l6f2}{{6.2}{35}}
\@writefile{lof}{\contentsline {figure}{\numberline {6.3}{\ignorespaces Wykresy z programu lab6\_1.m, transmitancja 3\relax }}{36}\protected@file@percent }
\newlabel{fig:l6f3}{{6.3}{36}}
\@writefile{lof}{\contentsline {figure}{\numberline {6.4}{\ignorespaces Wykresy z programu lab6\_1.m, transmitancja 4\relax }}{37}\protected@file@percent }
\newlabel{fig:l6f4}{{6.4}{37}}
\@writefile{lof}{\contentsline {figure}{\numberline {6.5}{\ignorespaces Wykresy z programu lab6\_2.m, transmitancja 1\relax }}{38}\protected@file@percent }
\newlabel{fig:l6f5}{{6.5}{38}}
\@writefile{lof}{\contentsline {figure}{\numberline {6.6}{\ignorespaces Wykresy z programu lab6\_2.m, transmitancja 2\relax }}{39}\protected@file@percent }
\newlabel{fig:l6f6}{{6.6}{39}}
\@writefile{lof}{\contentsline {figure}{\numberline {6.7}{\ignorespaces Wykresy z programu lab6\_2.m, transmitancja 3\relax }}{40}\protected@file@percent }
\newlabel{fig:l6f7}{{6.7}{40}}
\@writefile{lof}{\contentsline {figure}{\numberline {6.8}{\ignorespaces Wykresy z programu lab6\_2.m, transmitancja 4\relax }}{41}\protected@file@percent }
\newlabel{fig:l6f8}{{6.8}{41}}
\@writefile{lof}{\contentsline {figure}{\numberline {6.9}{\ignorespaces Wykresy z programu lab6\_3.m\relax }}{42}\protected@file@percent }
\newlabel{fig:l6fi9}{{6.9}{42}}
\@writefile{lof}{\contentsline {figure}{\numberline {6.10}{\ignorespaces Zaprojektowany filtr cyfrowy transponowany - transmitancja jak dla przypadku 4\relax }}{43}\protected@file@percent }
\newlabel{fig:l6fi10}{{6.10}{43}}
\@writefile{lof}{\contentsline {figure}{\numberline {6.11}{\ignorespaces Sinusoida o amplitudzie 1 i częstotliwości \SI {125}{\hertz } po filtracji z użyciem filtra z Rys.\nobreakspace  {}6.10\hbox {}\relax }}{43}\protected@file@percent }
\newlabel{fig:l6fi11}{{6.11}{43}}
\newlabel{prog:lab6_1}{{6.1}{44}}
\@writefile{lol}{\contentsline {lstlisting}{\numberline {6.1}Kod źródłowy programu lab6\_1.m}{44}\protected@file@percent }
\newlabel{prog:lab6_2}{{6.2}{44}}
\@writefile{lol}{\contentsline {lstlisting}{\numberline {6.2}Kod źródłowy programu lab6\_2.m}{44}\protected@file@percent }
\newlabel{prog:lab6_3}{{6.3}{46}}
\@writefile{lol}{\contentsline {lstlisting}{\numberline {6.3}Kod źródłowy programu lab6\_3.m}{46}\protected@file@percent }
\@writefile{toc}{\contentsline {chapter}{\numberline {7}Laboratorium 7}{47}\protected@file@percent }
\@writefile{lof}{\addvspace {10\p@ }}
\@writefile{lot}{\addvspace {10\p@ }}
\@writefile{toc}{\contentsline {section}{\numberline {7.1}Cel laboratorium}{47}\protected@file@percent }
\@writefile{toc}{\contentsline {section}{\numberline {7.2}Programy}{47}\protected@file@percent }
\@writefile{lof}{\contentsline {figure}{\numberline {7.1}{\ignorespaces Filtr IIR lowpass - Butterwortha\relax }}{48}\protected@file@percent }
\newlabel{fig:l7f1}{{7.1}{48}}
\@writefile{lof}{\contentsline {figure}{\numberline {7.2}{\ignorespaces Filtr FIR lowpass - utworzony poleceniem fir1\relax }}{49}\protected@file@percent }
\newlabel{fig:l7f2}{{7.2}{49}}
\@writefile{lof}{\contentsline {figure}{\numberline {7.3}{\ignorespaces Sygnał poliharmoniczny, filtr lowpass\relax }}{50}\protected@file@percent }
\newlabel{fig:l7f3}{{7.3}{50}}
\@writefile{lof}{\contentsline {figure}{\numberline {7.4}{\ignorespaces Sygnał chirp, filtr lowpass\relax }}{51}\protected@file@percent }
\newlabel{fig:l7f4}{{7.4}{51}}
\@writefile{lof}{\contentsline {figure}{\numberline {7.5}{\ignorespaces Filtr pasmowoprzepustowy IIR - Butterwortha\relax }}{52}\protected@file@percent }
\newlabel{fig:l7f5}{{7.5}{52}}
\@writefile{lof}{\contentsline {figure}{\numberline {7.6}{\ignorespaces Filtr pasmowoprzepustowy FIR\relax }}{53}\protected@file@percent }
\newlabel{fig:l7f6}{{7.6}{53}}
\@writefile{lof}{\contentsline {figure}{\numberline {7.7}{\ignorespaces Sygnał poliharmoniczny, filtr bandpass\relax }}{54}\protected@file@percent }
\newlabel{fig:l7f7}{{7.7}{54}}
\@writefile{lof}{\contentsline {figure}{\numberline {7.8}{\ignorespaces Sygnał chirp, filtr bandpass\relax }}{55}\protected@file@percent }
\newlabel{fig:l7f8}{{7.8}{55}}
\newlabel{prog:lab7_1}{{7.1}{56}}
\@writefile{lol}{\contentsline {lstlisting}{\numberline {7.1}Kod źródłowy programu lab7\_1.m}{56}\protected@file@percent }
\newlabel{prog:lab7_2}{{7.2}{57}}
\@writefile{lol}{\contentsline {lstlisting}{\numberline {7.2}Kod źródłowy programu lab7\_2.m}{57}\protected@file@percent }
\@writefile{toc}{\contentsline {chapter}{\numberline {8}Zieliński - Sygnały i ich parametry }{59}\protected@file@percent }
\@writefile{lof}{\addvspace {10\p@ }}
\@writefile{lot}{\addvspace {10\p@ }}
\@writefile{toc}{\contentsline {section}{\numberline {8.1}Opis działania programów}{59}\protected@file@percent }
\@writefile{toc}{\contentsline {section}{\numberline {8.2}Programy}{59}\protected@file@percent }
\@writefile{lof}{\contentsline {figure}{\numberline {8.1}{\ignorespaces Wykresy z programu r1.m \relax }}{60}\protected@file@percent }
\newlabel{fig:r1f1}{{8.1}{60}}
\@writefile{lof}{\contentsline {figure}{\numberline {8.2}{\ignorespaces Wykresy z programu r1.m \relax }}{61}\protected@file@percent }
\newlabel{fig:r1f2}{{8.2}{61}}
\@writefile{lof}{\contentsline {figure}{\numberline {8.3}{\ignorespaces Wykresy z programu r1.m \relax }}{62}\protected@file@percent }
\newlabel{fig:r1f3}{{8.3}{62}}
\@writefile{lof}{\contentsline {figure}{\numberline {8.4}{\ignorespaces Wykresy z programu r1.m \relax }}{63}\protected@file@percent }
\newlabel{fig:r1f4}{{8.4}{63}}
\@writefile{lof}{\contentsline {figure}{\numberline {8.5}{\ignorespaces Wykresy z programu r1.m \relax }}{64}\protected@file@percent }
\newlabel{fig:r1f6}{{8.5}{64}}
\@writefile{lof}{\contentsline {figure}{\numberline {8.6}{\ignorespaces Wykresy z programu r1.m \relax }}{65}\protected@file@percent }
\newlabel{fig:r1f7}{{8.6}{65}}
\newlabel{prog:r1}{{8.1}{66}}
\@writefile{lol}{\contentsline {lstlisting}{\numberline {8.1}Kod źródłowy programu r1.m}{66}\protected@file@percent }
\@writefile{toc}{\contentsline {chapter}{\numberline {9}Zieliński - Podstawy matematyczne analizy sygnałów deterministycznnych }{68}\protected@file@percent }
\@writefile{lof}{\addvspace {10\p@ }}
\@writefile{lot}{\addvspace {10\p@ }}
\@writefile{toc}{\contentsline {section}{\numberline {9.1}Opis działania programów}{68}\protected@file@percent }
\@writefile{toc}{\contentsline {section}{\numberline {9.2}Programy}{68}\protected@file@percent }
\@writefile{lof}{\contentsline {figure}{\numberline {9.1}{\ignorespaces Wykresy z programu r2.m \relax }}{69}\protected@file@percent }
\newlabel{fig:r2f1}{{9.1}{69}}
\newlabel{prog:r2}{{9.1}{70}}
\@writefile{lol}{\contentsline {lstlisting}{\numberline {9.1}Kod źródłowy programu r2.m}{70}\protected@file@percent }
\@writefile{toc}{\contentsline {chapter}{\numberline {10}Zieliński - Szereg Fouriera}{72}\protected@file@percent }
\@writefile{lof}{\addvspace {10\p@ }}
\@writefile{lot}{\addvspace {10\p@ }}
\@writefile{toc}{\contentsline {section}{\numberline {10.1}Opis działania programów}{72}\protected@file@percent }
\@writefile{toc}{\contentsline {section}{\numberline {10.2}Programy}{72}\protected@file@percent }
\@writefile{lof}{\contentsline {figure}{\numberline {10.1}{\ignorespaces Wykresy z programu r3.m \relax }}{73}\protected@file@percent }
\newlabel{fig:r3f1}{{10.1}{73}}
\@writefile{lof}{\contentsline {figure}{\numberline {10.2}{\ignorespaces Wykresy z programu r3.m \relax }}{74}\protected@file@percent }
\newlabel{fig:r3f2}{{10.2}{74}}
\@writefile{lof}{\contentsline {figure}{\numberline {10.3}{\ignorespaces Wykresy z programu r3.m \relax }}{75}\protected@file@percent }
\newlabel{fig:r3f3}{{10.3}{75}}
\@writefile{lof}{\contentsline {figure}{\numberline {10.4}{\ignorespaces Wykresy z programu r3.m \relax }}{76}\protected@file@percent }
\newlabel{fig:r3f4}{{10.4}{76}}
\@writefile{lof}{\contentsline {figure}{\numberline {10.5}{\ignorespaces Wykresy z programu r3.m \relax }}{77}\protected@file@percent }
\newlabel{fig:r3f5}{{10.5}{77}}
\@writefile{lof}{\contentsline {figure}{\numberline {10.6}{\ignorespaces Wykresy z programu r3.m \relax }}{78}\protected@file@percent }
\newlabel{fig:r3f6}{{10.6}{78}}
\newlabel{prog:r3}{{10.1}{79}}
\@writefile{lol}{\contentsline {lstlisting}{\numberline {10.1}Kod źródłowy programu r3.m}{79}\protected@file@percent }
\@writefile{toc}{\contentsline {chapter}{\numberline {11}Zieliński - Całkowe przekształcenie Fouriera}{80}\protected@file@percent }
\@writefile{lof}{\addvspace {10\p@ }}
\@writefile{lot}{\addvspace {10\p@ }}
\@writefile{toc}{\contentsline {section}{\numberline {11.1}Opis działania programów}{80}\protected@file@percent }
\@writefile{toc}{\contentsline {section}{\numberline {11.2}Programy}{80}\protected@file@percent }
\@writefile{lof}{\contentsline {figure}{\numberline {11.1}{\ignorespaces Wykresy z programu r4.m \relax }}{81}\protected@file@percent }
\newlabel{fig:r4f1}{{11.1}{81}}
\@writefile{lof}{\contentsline {figure}{\numberline {11.2}{\ignorespaces Wykresy z programu r4.m \relax }}{82}\protected@file@percent }
\newlabel{fig:r4f2}{{11.2}{82}}
\newlabel{prog:r4}{{11.1}{83}}
\@writefile{lol}{\contentsline {lstlisting}{\numberline {11.1}Kod źródłowy programu r4.m}{83}\protected@file@percent }
\@writefile{toc}{\contentsline {chapter}{\numberline {12}Zieliński - Układy analogowe}{84}\protected@file@percent }
\@writefile{lof}{\addvspace {10\p@ }}
\@writefile{lot}{\addvspace {10\p@ }}
\@writefile{toc}{\contentsline {section}{\numberline {12.1}Opis działania programów}{84}\protected@file@percent }
\@writefile{toc}{\contentsline {section}{\numberline {12.2}Programy}{84}\protected@file@percent }
\@writefile{lof}{\contentsline {figure}{\numberline {12.1}{\ignorespaces Wykresy z programu r5.m \relax }}{85}\protected@file@percent }
\newlabel{fig:r5f1}{{12.1}{85}}
\@writefile{lof}{\contentsline {figure}{\numberline {12.2}{\ignorespaces Wykresy z programu r5.m \relax }}{86}\protected@file@percent }
\newlabel{fig:r5f2}{{12.2}{86}}
\@writefile{lof}{\contentsline {figure}{\numberline {12.3}{\ignorespaces Wykresy z programu r5.m \relax }}{87}\protected@file@percent }
\newlabel{fig:r5f3}{{12.3}{87}}
\newlabel{prog:r5}{{12.1}{88}}
\@writefile{lol}{\contentsline {lstlisting}{\numberline {12.1}Kod źródłowy programu r5.m}{88}\protected@file@percent }
\@writefile{toc}{\contentsline {chapter}{\numberline {13}Zieliński - Analogowe filtry Czebyszewa i Butterwortha}{90}\protected@file@percent }
\@writefile{lof}{\addvspace {10\p@ }}
\@writefile{lot}{\addvspace {10\p@ }}
\@writefile{toc}{\contentsline {section}{\numberline {13.1}Opis działania programów}{90}\protected@file@percent }
\@writefile{toc}{\contentsline {section}{\numberline {13.2}Programy}{90}\protected@file@percent }
\@writefile{lof}{\contentsline {figure}{\numberline {13.1}{\ignorespaces Wykresy z programu r6.m \relax }}{91}\protected@file@percent }
\newlabel{fig:r6f1}{{13.1}{91}}
\newlabel{prog:r6}{{13.1}{92}}
\@writefile{lol}{\contentsline {lstlisting}{\numberline {13.1}Kod źródłowy programu r6.m}{92}\protected@file@percent }
\@writefile{toc}{\contentsline {chapter}{\numberline {14}Zieliński - Analiza częstotliwościowa sygnałów dyskretnych }{93}\protected@file@percent }
\@writefile{lof}{\addvspace {10\p@ }}
\@writefile{lot}{\addvspace {10\p@ }}
\@writefile{toc}{\contentsline {section}{\numberline {14.1}Opis działania programów}{93}\protected@file@percent }
\@writefile{toc}{\contentsline {section}{\numberline {14.2}Programy}{93}\protected@file@percent }
\@writefile{lof}{\contentsline {figure}{\numberline {14.1}{\ignorespaces Wykresy z programu r8\_1.m \relax }}{94}\protected@file@percent }
\newlabel{fig:r8f1}{{14.1}{94}}
\@writefile{lof}{\contentsline {figure}{\numberline {14.2}{\ignorespaces Wykresy z programu r8\_2.m \relax }}{95}\protected@file@percent }
\newlabel{fig:r8f2}{{14.2}{95}}
\newlabel{prog:r8_1}{{14.1}{96}}
\@writefile{lol}{\contentsline {lstlisting}{\numberline {14.1}Kod źródłowy programu r8\_1.m}{96}\protected@file@percent }
\newlabel{prog:r8_2}{{14.2}{97}}
\@writefile{lol}{\contentsline {lstlisting}{\numberline {14.2}Kod źródłowy programu r8\_2.m}{97}\protected@file@percent }
\@writefile{toc}{\contentsline {chapter}{\numberline {15}Zieliński - Algorytmy wyznaczania dyskretnej transformacji Fouriera}{99}\protected@file@percent }
\@writefile{lof}{\addvspace {10\p@ }}
\@writefile{lot}{\addvspace {10\p@ }}
\@writefile{toc}{\contentsline {section}{\numberline {15.1}Opis działania programów}{99}\protected@file@percent }
\@writefile{toc}{\contentsline {section}{\numberline {15.2}Programy}{99}\protected@file@percent }
\newlabel{prog:r9}{{15.1}{99}}
\@writefile{lol}{\contentsline {lstlisting}{\numberline {15.1}Kod źródłowy programu r9.m}{99}\protected@file@percent }
\@writefile{toc}{\contentsline {chapter}{\numberline {16}Zieliński - Układy dyskretne}{101}\protected@file@percent }
\@writefile{lof}{\addvspace {10\p@ }}
\@writefile{lot}{\addvspace {10\p@ }}
\@writefile{toc}{\contentsline {section}{\numberline {16.1}Opis działania programów}{101}\protected@file@percent }
\@writefile{toc}{\contentsline {section}{\numberline {16.2}Programy}{101}\protected@file@percent }
\@writefile{lof}{\contentsline {figure}{\numberline {16.1}{\ignorespaces Wykresy z programu r10.m \relax }}{101}\protected@file@percent }
\newlabel{fig:r10f1}{{16.1}{101}}
\@writefile{lof}{\contentsline {figure}{\numberline {16.2}{\ignorespaces Wykresy z programu r10.m \relax }}{102}\protected@file@percent }
\newlabel{fig:r10f2}{{16.2}{102}}
\newlabel{prog:r10}{{16.1}{103}}
\@writefile{lol}{\contentsline {lstlisting}{\numberline {16.1}Kod źródłowy programu r10.m}{103}\protected@file@percent }
\@writefile{toc}{\contentsline {chapter}{\numberline {17}Zieliński - Projektowanie rekursywnych filtrów cyfrowych}{105}\protected@file@percent }
\@writefile{lof}{\addvspace {10\p@ }}
\@writefile{lot}{\addvspace {10\p@ }}
\@writefile{toc}{\contentsline {section}{\numberline {17.1}Opis działania programów}{105}\protected@file@percent }
\@writefile{toc}{\contentsline {section}{\numberline {17.2}Programy}{105}\protected@file@percent }
\@writefile{lof}{\contentsline {figure}{\numberline {17.1}{\ignorespaces Wykresy z programu r11.m \relax }}{106}\protected@file@percent }
\newlabel{fig:r11f1}{{17.1}{106}}
\newlabel{prog:r11}{{17.1}{107}}
\@writefile{lol}{\contentsline {lstlisting}{\numberline {17.1}Kod źródłowy programu r11.m}{107}\protected@file@percent }
\@writefile{toc}{\contentsline {chapter}{\numberline {18}Zieliński - Projektowanie nierekursywnych filtrów cyfrowych}{110}\protected@file@percent }
\@writefile{lof}{\addvspace {10\p@ }}
\@writefile{lot}{\addvspace {10\p@ }}
\@writefile{toc}{\contentsline {section}{\numberline {18.1}Opis działania programów}{110}\protected@file@percent }
\@writefile{toc}{\contentsline {section}{\numberline {18.2}Programy}{110}\protected@file@percent }
\@writefile{lof}{\contentsline {figure}{\numberline {18.1}{\ignorespaces Wykresy z programu r12\_1.m \relax }}{111}\protected@file@percent }
\newlabel{fig:r12f1}{{18.1}{111}}
\@writefile{lof}{\contentsline {figure}{\numberline {18.2}{\ignorespaces Wykresy z programu r12\_1.m \relax }}{112}\protected@file@percent }
\newlabel{fig:r12f2}{{18.2}{112}}
\@writefile{lof}{\contentsline {figure}{\numberline {18.3}{\ignorespaces Wykresy z programu r12\_2.m \relax }}{113}\protected@file@percent }
\newlabel{fig:r12f3}{{18.3}{113}}
\@writefile{lof}{\contentsline {figure}{\numberline {18.4}{\ignorespaces Wykresy z programu r12\_2.m \relax }}{114}\protected@file@percent }
\newlabel{fig:r12f4}{{18.4}{114}}
\@writefile{lof}{\contentsline {figure}{\numberline {18.5}{\ignorespaces Wykresy z programu r12\_2.m \relax }}{115}\protected@file@percent }
\newlabel{fig:r12f5}{{18.5}{115}}
\@writefile{lof}{\contentsline {figure}{\numberline {18.6}{\ignorespaces Wykresy z programu r12\_2.m \relax }}{116}\protected@file@percent }
\newlabel{fig:r12f6}{{18.6}{116}}
\@writefile{lof}{\contentsline {figure}{\numberline {18.7}{\ignorespaces Wykresy z programu r12\_2.m \relax }}{117}\protected@file@percent }
\newlabel{fig:r12f7}{{18.7}{117}}
\@writefile{lof}{\contentsline {figure}{\numberline {18.8}{\ignorespaces Wykresy z programu r12\_3.m \relax }}{118}\protected@file@percent }
\newlabel{fig:r12f8}{{18.8}{118}}
\@writefile{lof}{\contentsline {figure}{\numberline {18.9}{\ignorespaces Wykresy z programu r12\_4.m \relax }}{119}\protected@file@percent }
\newlabel{fig:r12f9}{{18.9}{119}}
\newlabel{prog:r12_1}{{18.1}{120}}
\@writefile{lol}{\contentsline {lstlisting}{\numberline {18.1}Kod źródłowy programu r12\_1.m}{120}\protected@file@percent }
\newlabel{prog:r12_2}{{18.2}{120}}
\@writefile{lol}{\contentsline {lstlisting}{\numberline {18.2}Kod źródłowy programu r12\_2.m}{120}\protected@file@percent }
\newlabel{prog:r12_3}{{18.3}{122}}
\@writefile{lol}{\contentsline {lstlisting}{\numberline {18.3}Kod źródłowy programu r12\_3.m}{122}\protected@file@percent }
\newlabel{prog:r12_4}{{18.4}{123}}
\@writefile{lol}{\contentsline {lstlisting}{\numberline {18.4}Kod źródłowy programu r12\_4.m}{123}\protected@file@percent }
\@writefile{toc}{\contentsline {chapter}{\numberline {19}Zieliński - Metody czasowo- częstotliwościowej analizy sygnałów}{125}\protected@file@percent }
\@writefile{lof}{\addvspace {10\p@ }}
\@writefile{lot}{\addvspace {10\p@ }}
\@writefile{toc}{\contentsline {section}{\numberline {19.1}Opis działania programów}{125}\protected@file@percent }
\@writefile{toc}{\contentsline {section}{\numberline {19.2}Programy}{125}\protected@file@percent }
\@writefile{lof}{\contentsline {figure}{\numberline {19.1}{\ignorespaces Wykresy z programu r17\_1.m \relax }}{126}\protected@file@percent }
\newlabel{fig:r17f1}{{19.1}{126}}
\@writefile{lof}{\contentsline {figure}{\numberline {19.2}{\ignorespaces Wykresy z programu r17\_2.m \relax }}{127}\protected@file@percent }
\newlabel{fig:r17f2}{{19.2}{127}}
\@writefile{lof}{\contentsline {figure}{\numberline {19.3}{\ignorespaces Wykresy z programu r17\_3.m \relax }}{128}\protected@file@percent }
\newlabel{fig:r17f3}{{19.3}{128}}
\newlabel{prog:r17_1}{{19.1}{129}}
\@writefile{lol}{\contentsline {lstlisting}{\numberline {19.1}Kod źródłowy programu r17\_1.m}{129}\protected@file@percent }
\newlabel{prog:r17_2}{{19.2}{129}}
\@writefile{lol}{\contentsline {lstlisting}{\numberline {19.2}Kod źródłowy programu r17\_2.m}{129}\protected@file@percent }
\newlabel{prog:r17_3}{{19.3}{129}}
\@writefile{lol}{\contentsline {lstlisting}{\numberline {19.3}Kod źródłowy programu r17\_3.m}{129}\protected@file@percent }
